$ 1 0.000005 3.3115451958692312 42 5 43 5e-11
g -368 368 -368 384 0 0
r -368 304 -368 368 0 1000
w -368 304 -336 304 3
w -368 288 -368 304 0
s -368 224 -368 288 0 1 false
r -160 192 -160 256 0 0.1
w -304 240 -304 256 0
w -304 256 -224 256 0
162 -304 176 -304 240 2 default-led 1 0 0 0.01
R -368 224 -368 176 0 0 40 5 0 0 0.5
r -256 304 -336 304 0 22
w -224 320 -224 368 0
g -224 368 -224 400 0 0
w -224 256 -224 288 0
R -224 -64 -224 -112 0 0 40 12 0 0 0.5
w -224 -64 -304 -64 0
r -304 -64 -304 176 0 1800
d -224 256 -224 128 2 default
w -224 -64 -160 -64 1
w -160 128 -224 128 1
t -256 304 -224 304 0 1 -4.9999999947878 5.2121999944139325e-9 100 default
r -160 -64 -160 128 0 39
w -224 256 -160 256 0
l -160 128 -160 192 0 0.01 0.1790280829680005 0
f 160 160 208 160 32 1.8 5
R -304 256 -304 208 0 0 40 5 0 0 0.5
s -304 256 -304 320 0 1 false
R 48 96 48 48 0 0 40 5 0 0 0.5
s 48 96 48 160 0 1 false
r 112 160 160 160 0 22
r 48 160 48 288 0 47000
g 48 288 48 304 0 0
R 208 -48 208 -96 0 0 40 12 0 0 0.5
w 208 112 208 144 3
w 208 208 208 176 3
w 112 160 48 160 3
g 208 208 208 240 0 0
r 208 64 208 112 0 1800
162 208 -16 208 32 2 default-led 1 0 0 0.01
w 208 -16 288 -16 0
w 208 112 288 112 0
r 288 48 288 112 0 8
r 288 -16 288 48 0 1
a 400 0 528 0 9 15 -15 1000000 11.463414582013009 11.463414634146343 100000
w 288 -16 336 -16 0
w 336 16 336 48 0
w 336 48 288 48 0
r 336 -16 400 -16 0 2200
r 336 16 400 16 0 2200
r 432 64 496 64 0 47000
w 400 16 400 64 0
w 400 64 432 64 0
w 496 64 528 64 0
w 528 64 528 0 0
r 400 -64 400 -16 0 47000
g 400 -64 400 -96 0 0
c 560 0 560 64 0 1e-8 0.005213333462043735 0.001
g 560 64 560 80 0 0
w 560 0 528 0 2
w 208 32 208 64 1
w 208 -48 208 -16 1
