../Core/Src/eeprom.cpp:80:10:uint16_t EE_Init()	48	static
../Core/Src/eeprom.cpp:333:10:uint16_t EE_VerifyPageFullyErased(uint32_t)	32	static
../Core/Src/eeprom.cpp:372:10:uint16_t EE_ReadVariable(uint16_t, uint16_t*)	32	static
../Core/Src/eeprom.cpp:431:10:uint16_t EE_WriteVariable(uint16_t, uint16_t)	24	static
../Core/Src/eeprom.cpp:455:26:HAL_StatusTypeDef EE_Format()	40	static
../Core/Src/eeprom.cpp:507:17:uint16_t EE_FindValidPage(uint8_t)	24	static
../Core/Src/eeprom.cpp:579:17:uint16_t EE_VerifyPageFullWriteVariable(uint16_t, uint16_t)	48	static
../Core/Src/eeprom.cpp:640:17:uint16_t EE_PageTransfer(uint16_t, uint16_t)	56	static
