EESchema Schematic File Version 4
EELAYER 30 0
EELAYER END
$Descr A4 11693 8268
encoding utf-8
Sheet 1 5
Title ""
Date ""
Rev ""
Comp ""
Comment1 ""
Comment2 ""
Comment3 ""
Comment4 ""
$EndDescr
$Sheet
S 9700 950  650  600 
U 634B435D
F0 "wifi" 50
F1 "wifi.sch" 50
F2 "ESP_RX" I L 9700 1100 50 
F3 "ESP_TX" I L 9700 1200 50 
F4 "ESP_RTS" B L 9700 1300 50 
F5 "ESP_CTS" B L 9700 1400 50 
$EndSheet
Text Label 9250 1200 0    50   ~ 0
UART1_RX
Wire Wire Line
	9250 1200 9700 1200
Text Label 9250 1100 0    50   ~ 0
UART1_TX
Wire Wire Line
	9250 1100 9700 1100
Text Notes 9050 700  0    50   ~ 0
Permet de communiquer en wifi avec un soft 
$Comp
L power:+3.3V #PWR?
U 1 1 634BB71F
P 5100 1250
AR Path="/634B435D/634BB71F" Ref="#PWR?"  Part="1" 
AR Path="/634BB71F" Ref="#PWR09"  Part="1" 
F 0 "#PWR09" H 5100 1100 50  0001 C CNN
F 1 "+3.3V" H 5115 1423 50  0000 C CNN
F 2 "" H 5100 1250 50  0001 C CNN
F 3 "" H 5100 1250 50  0001 C CNN
	1    5100 1250
	1    0    0    -1  
$EndComp
Wire Wire Line
	5000 1350 5000 1300
Wire Wire Line
	5000 1300 5100 1300
Wire Wire Line
	5300 1300 5300 1350
Wire Wire Line
	5200 1350 5200 1300
Connection ~ 5200 1300
Wire Wire Line
	5200 1300 5300 1300
Wire Wire Line
	5100 1250 5100 1300
Connection ~ 5100 1300
Wire Wire Line
	5100 1300 5200 1300
Wire Wire Line
	5100 1300 5100 1350
$Comp
L Switch:SW_Push SW1
U 1 1 634BDA8A
P 9400 2550
F 0 "SW1" H 9400 2835 50  0000 C CNN
F 1 "STM_RESET" H 9400 2744 50  0000 C CNN
F 2 "Button_Switch_THT:SW_PUSH_6mm_H4.3mm" H 9400 2750 50  0001 C CNN
F 3 "~" H 9400 2750 50  0001 C CNN
	1    9400 2550
	0    -1   -1   0   
$EndComp
$Comp
L Device:R_Small R9
U 1 1 634BFA23
P 4150 1400
F 0 "R9" H 4209 1446 50  0000 L CNN
F 1 "47k" H 4209 1355 50  0000 L CNN
F 2 "Resistor_SMD:R_0603_1608Metric" H 4150 1400 50  0001 C CNN
F 3 "~" H 4150 1400 50  0001 C CNN
	1    4150 1400
	1    0    0    -1  
$EndComp
Wire Wire Line
	4400 1550 4150 1550
Wire Wire Line
	4150 1550 4150 1500
Wire Wire Line
	4150 1550 3800 1550
Connection ~ 4150 1550
Text Label 3800 1550 0    50   ~ 0
RST
$Comp
L power:+3.3V #PWR?
U 1 1 634C06E7
P 4150 1300
AR Path="/634B435D/634C06E7" Ref="#PWR?"  Part="1" 
AR Path="/634C06E7" Ref="#PWR07"  Part="1" 
F 0 "#PWR07" H 4150 1150 50  0001 C CNN
F 1 "+3.3V" H 4165 1473 50  0000 C CNN
F 2 "" H 4150 1300 50  0001 C CNN
F 3 "" H 4150 1300 50  0001 C CNN
	1    4150 1300
	1    0    0    -1  
$EndComp
$Comp
L power:GND #PWR025
U 1 1 634C120F
P 9500 2750
F 0 "#PWR025" H 9500 2500 50  0001 C CNN
F 1 "GND" H 9505 2577 50  0000 C CNN
F 2 "" H 9500 2750 50  0001 C CNN
F 3 "" H 9500 2750 50  0001 C CNN
	1    9500 2750
	1    0    0    -1  
$EndComp
Text Label 9650 2300 0    50   ~ 0
RST
Wire Wire Line
	9400 2300 9400 2350
$Comp
L Device:C_Small C?
U 1 1 634C2240
P 9600 2550
AR Path="/634B435D/634C2240" Ref="C?"  Part="1" 
AR Path="/634C2240" Ref="C7"  Part="1" 
F 0 "C7" H 9692 2596 50  0000 L CNN
F 1 "10n" H 9692 2505 50  0000 L CNN
F 2 "Capacitor_SMD:C_0603_1608Metric" H 9600 2550 50  0001 C CNN
F 3 "~" H 9600 2550 50  0001 C CNN
	1    9600 2550
	1    0    0    -1  
$EndComp
Wire Wire Line
	9600 2750 9500 2750
Wire Wire Line
	9600 2650 9600 2750
Wire Wire Line
	9600 2450 9600 2300
Wire Wire Line
	9400 2300 9600 2300
Connection ~ 9600 2300
Wire Wire Line
	9600 2300 9650 2300
Connection ~ 9500 2750
Wire Wire Line
	9500 2750 9400 2750
$Comp
L Device:Crystal_Small Y1
U 1 1 634C57F7
P 4050 2600
F 0 "Y1" V 4004 2688 50  0000 L CNN
F 1 "8MHz" V 4095 2688 50  0000 L CNN
F 2 "Crystal:Crystal_SMD_5032-2Pin_5.0x3.2mm" H 4050 2600 50  0001 C CNN
F 3 "~" H 4050 2600 50  0001 C CNN
F 4 "C115962" V 4050 2600 50  0001 C CNN "LCSC"
	1    4050 2600
	0    1    1    0   
$EndComp
Wire Wire Line
	4400 2650 4250 2650
Wire Wire Line
	4400 2750 4050 2750
$Comp
L Device:C_Small C?
U 1 1 634C78F2
P 3750 2750
AR Path="/634B435D/634C78F2" Ref="C?"  Part="1" 
AR Path="/634C78F2" Ref="C2"  Part="1" 
F 0 "C2" V 3521 2750 50  0000 C CNN
F 1 "15p" V 3612 2750 50  0000 C CNN
F 2 "Capacitor_SMD:C_0603_1608Metric" H 3750 2750 50  0001 C CNN
F 3 "~" H 3750 2750 50  0001 C CNN
	1    3750 2750
	0    1    1    0   
$EndComp
$Comp
L Device:C_Small C?
U 1 1 634C848F
P 3750 2450
AR Path="/634B435D/634C848F" Ref="C?"  Part="1" 
AR Path="/634C848F" Ref="C1"  Part="1" 
F 0 "C1" V 3979 2450 50  0000 C CNN
F 1 "15p" V 3888 2450 50  0000 C CNN
F 2 "Capacitor_SMD:C_0603_1608Metric" H 3750 2450 50  0001 C CNN
F 3 "~" H 3750 2450 50  0001 C CNN
	1    3750 2450
	0    -1   -1   0   
$EndComp
Wire Wire Line
	4050 2700 4050 2750
Wire Wire Line
	4250 2450 4050 2450
Wire Wire Line
	4050 2450 4050 2500
Wire Wire Line
	4250 2450 4250 2650
Wire Wire Line
	3850 2450 4050 2450
Connection ~ 4050 2450
Wire Wire Line
	4050 2750 3850 2750
Connection ~ 4050 2750
Wire Wire Line
	3650 2450 3550 2450
Wire Wire Line
	3550 2450 3550 2750
Wire Wire Line
	3550 2750 3650 2750
$Comp
L power:GND #PWR05
U 1 1 634CD0B5
P 3100 2750
F 0 "#PWR05" H 3100 2500 50  0001 C CNN
F 1 "GND" H 3105 2577 50  0000 C CNN
F 2 "" H 3100 2750 50  0001 C CNN
F 3 "" H 3100 2750 50  0001 C CNN
	1    3100 2750
	-1   0    0    1   
$EndComp
Connection ~ 3550 2750
$Comp
L power:GND #PWR010
U 1 1 634CE998
P 5100 4950
F 0 "#PWR010" H 5100 4700 50  0001 C CNN
F 1 "GND" H 5105 4777 50  0000 C CNN
F 2 "" H 5100 4950 50  0001 C CNN
F 3 "" H 5100 4950 50  0001 C CNN
	1    5100 4950
	1    0    0    -1  
$EndComp
Text Label 9250 1400 0    50   ~ 0
UART1_CTS
Wire Wire Line
	9250 1400 9700 1400
Text Label 9250 1300 0    50   ~ 0
UART1_RTS
Wire Wire Line
	9250 1300 9700 1300
Text Label 6150 2550 2    50   ~ 0
UART1_RX
Wire Wire Line
	6150 2550 5700 2550
Text Label 6150 2450 2    50   ~ 0
UART1_TX
Wire Wire Line
	6150 2450 5700 2450
Text Label 6150 2650 2    50   ~ 0
UART1_CTS
Wire Wire Line
	6150 2650 5700 2650
Text Label 6150 2750 2    50   ~ 0
UART1_RTS
Wire Wire Line
	6150 2750 5700 2750
Text Label 6150 1550 2    50   ~ 0
TEMP1
Text Label 6150 1650 2    50   ~ 0
TEMP2
Text Label 1100 950  0    50   ~ 0
NEUTRE
Text Label 8450 5900 0    50   ~ 0
PHASE
Text Label 10000 3900 0    50   ~ 0
NEUTRE
Wire Wire Line
	8450 5900 8850 5900
Wire Wire Line
	10400 3900 10000 3900
Wire Wire Line
	9900 3800 10400 3800
$Sheet
S 1600 800  650  450 
U 63506B18
F0 "Régulation et Sécurité" 50
F1 "regulation_et_secu.sch" 50
F2 "PHASE" I L 1600 1050 50 
F3 "NEUTRE" I L 1600 950 50 
$EndSheet
$Comp
L Device:C_Small C?
U 1 1 63519BAE
P 6050 850
AR Path="/634B435D/63519BAE" Ref="C?"  Part="1" 
AR Path="/63519BAE" Ref="C3"  Part="1" 
F 0 "C3" H 6142 896 50  0000 L CNN
F 1 "100n" H 6142 805 50  0000 L CNN
F 2 "Capacitor_SMD:C_0603_1608Metric" H 6050 850 50  0001 C CNN
F 3 "~" H 6050 850 50  0001 C CNN
	1    6050 850 
	1    0    0    -1  
$EndComp
$Comp
L power:+3.3V #PWR?
U 1 1 63519BB4
P 6050 750
AR Path="/634B435D/63519BB4" Ref="#PWR?"  Part="1" 
AR Path="/63519BB4" Ref="#PWR011"  Part="1" 
F 0 "#PWR011" H 6050 600 50  0001 C CNN
F 1 "+3.3V" H 6065 923 50  0000 C CNN
F 2 "" H 6050 750 50  0001 C CNN
F 3 "" H 6050 750 50  0001 C CNN
	1    6050 750 
	1    0    0    -1  
$EndComp
$Comp
L power:GND #PWR?
U 1 1 63519BBA
P 6050 950
AR Path="/634B435D/63519BBA" Ref="#PWR?"  Part="1" 
AR Path="/63519BBA" Ref="#PWR012"  Part="1" 
F 0 "#PWR012" H 6050 700 50  0001 C CNN
F 1 "GND" H 6055 777 50  0000 C CNN
F 2 "" H 6050 950 50  0001 C CNN
F 3 "" H 6050 950 50  0001 C CNN
	1    6050 950 
	1    0    0    -1  
$EndComp
$Comp
L Device:C_Small C?
U 1 1 6351BBA4
P 6450 850
AR Path="/634B435D/6351BBA4" Ref="C?"  Part="1" 
AR Path="/6351BBA4" Ref="C4"  Part="1" 
F 0 "C4" H 6542 896 50  0000 L CNN
F 1 "100n" H 6542 805 50  0000 L CNN
F 2 "Capacitor_SMD:C_0603_1608Metric" H 6450 850 50  0001 C CNN
F 3 "~" H 6450 850 50  0001 C CNN
	1    6450 850 
	1    0    0    -1  
$EndComp
$Comp
L power:+3.3V #PWR?
U 1 1 6351BBAA
P 6450 750
AR Path="/634B435D/6351BBAA" Ref="#PWR?"  Part="1" 
AR Path="/6351BBAA" Ref="#PWR015"  Part="1" 
F 0 "#PWR015" H 6450 600 50  0001 C CNN
F 1 "+3.3V" H 6465 923 50  0000 C CNN
F 2 "" H 6450 750 50  0001 C CNN
F 3 "" H 6450 750 50  0001 C CNN
	1    6450 750 
	1    0    0    -1  
$EndComp
$Comp
L power:GND #PWR?
U 1 1 6351BBB0
P 6450 950
AR Path="/634B435D/6351BBB0" Ref="#PWR?"  Part="1" 
AR Path="/6351BBB0" Ref="#PWR016"  Part="1" 
F 0 "#PWR016" H 6450 700 50  0001 C CNN
F 1 "GND" H 6455 777 50  0000 C CNN
F 2 "" H 6450 950 50  0001 C CNN
F 3 "" H 6450 950 50  0001 C CNN
	1    6450 950 
	1    0    0    -1  
$EndComp
$Comp
L Device:C_Small C?
U 1 1 6351D082
P 6800 850
AR Path="/634B435D/6351D082" Ref="C?"  Part="1" 
AR Path="/6351D082" Ref="C5"  Part="1" 
F 0 "C5" H 6892 896 50  0000 L CNN
F 1 "100n" H 6892 805 50  0000 L CNN
F 2 "Capacitor_SMD:C_0603_1608Metric" H 6800 850 50  0001 C CNN
F 3 "~" H 6800 850 50  0001 C CNN
	1    6800 850 
	1    0    0    -1  
$EndComp
$Comp
L power:+3.3V #PWR?
U 1 1 6351D088
P 6800 750
AR Path="/634B435D/6351D088" Ref="#PWR?"  Part="1" 
AR Path="/6351D088" Ref="#PWR018"  Part="1" 
F 0 "#PWR018" H 6800 600 50  0001 C CNN
F 1 "+3.3V" H 6815 923 50  0000 C CNN
F 2 "" H 6800 750 50  0001 C CNN
F 3 "" H 6800 750 50  0001 C CNN
	1    6800 750 
	1    0    0    -1  
$EndComp
$Comp
L power:GND #PWR?
U 1 1 6351D08E
P 6800 950
AR Path="/634B435D/6351D08E" Ref="#PWR?"  Part="1" 
AR Path="/6351D08E" Ref="#PWR019"  Part="1" 
F 0 "#PWR019" H 6800 700 50  0001 C CNN
F 1 "GND" H 6805 777 50  0000 C CNN
F 2 "" H 6800 950 50  0001 C CNN
F 3 "" H 6800 950 50  0001 C CNN
	1    6800 950 
	1    0    0    -1  
$EndComp
$Comp
L Device:C_Small C?
U 1 1 6351E41B
P 7150 850
AR Path="/634B435D/6351E41B" Ref="C?"  Part="1" 
AR Path="/6351E41B" Ref="C6"  Part="1" 
F 0 "C6" H 7242 896 50  0000 L CNN
F 1 "100n" H 7242 805 50  0000 L CNN
F 2 "Capacitor_SMD:C_0603_1608Metric" H 7150 850 50  0001 C CNN
F 3 "~" H 7150 850 50  0001 C CNN
	1    7150 850 
	1    0    0    -1  
$EndComp
$Comp
L power:+3.3V #PWR?
U 1 1 6351E421
P 7150 750
AR Path="/634B435D/6351E421" Ref="#PWR?"  Part="1" 
AR Path="/6351E421" Ref="#PWR022"  Part="1" 
F 0 "#PWR022" H 7150 600 50  0001 C CNN
F 1 "+3.3V" H 7165 923 50  0000 C CNN
F 2 "" H 7150 750 50  0001 C CNN
F 3 "" H 7150 750 50  0001 C CNN
	1    7150 750 
	1    0    0    -1  
$EndComp
$Comp
L power:GND #PWR?
U 1 1 6351E427
P 7150 950
AR Path="/634B435D/6351E427" Ref="#PWR?"  Part="1" 
AR Path="/6351E427" Ref="#PWR023"  Part="1" 
F 0 "#PWR023" H 7150 700 50  0001 C CNN
F 1 "GND" H 7155 777 50  0000 C CNN
F 2 "" H 7150 950 50  0001 C CNN
F 3 "" H 7150 950 50  0001 C CNN
	1    7150 950 
	1    0    0    -1  
$EndComp
Text Label 8450 3600 0    50   ~ 0
IN_H1
Wire Wire Line
	8450 3600 8850 3600
Text Label 8450 3700 0    50   ~ 0
IN_H2
Wire Wire Line
	8450 3700 8850 3700
Text Label 2900 4550 0    50   ~ 0
IN_H1
Text Label 2900 4650 0    50   ~ 0
IN_H2
Text Label 1100 1050 0    50   ~ 0
PHASE
$Comp
L Connector_Generic:Conn_01x05 J7
U 1 1 635493DA
P 10250 2600
F 0 "J7" H 10168 2175 50  0000 C CNN
F 1 "SWPort" H 10168 2266 50  0000 C CNN
F 2 "Connector_JST:JST_PH_B5B-PH-K_1x05_P2.00mm_Vertical" H 10250 2600 50  0001 C CNN
F 3 "~" H 10250 2600 50  0001 C CNN
	1    10250 2600
	-1   0    0    1   
$EndComp
$Comp
L power:GND #PWR029
U 1 1 6354A176
P 10600 2800
F 0 "#PWR029" H 10600 2550 50  0001 C CNN
F 1 "GND" H 10605 2627 50  0000 C CNN
F 2 "" H 10600 2800 50  0001 C CNN
F 3 "" H 10600 2800 50  0001 C CNN
	1    10600 2800
	1    0    0    -1  
$EndComp
Wire Wire Line
	10450 2800 10600 2800
$Comp
L power:+3.3V #PWR028
U 1 1 6354C3E4
P 10600 2400
F 0 "#PWR028" H 10600 2250 50  0001 C CNN
F 1 "+3.3V" H 10615 2573 50  0000 C CNN
F 2 "" H 10600 2400 50  0001 C CNN
F 3 "" H 10600 2400 50  0001 C CNN
	1    10600 2400
	1    0    0    -1  
$EndComp
Wire Wire Line
	10600 2400 10450 2400
Text Label 10750 2500 2    50   ~ 0
SWCLK
Text Label 10750 2600 2    50   ~ 0
SWDIO
Text Label 10750 2700 2    50   ~ 0
RST
Wire Wire Line
	10450 2700 10750 2700
Wire Wire Line
	10750 2600 10450 2600
Wire Wire Line
	10450 2500 10750 2500
Text Notes 9750 2100 0    50   ~ 0
Vérifier avec la PhilouST
Wire Notes Line
	8950 1900 10850 1900
Wire Notes Line
	10850 1900 10850 3100
Wire Notes Line
	10850 3100 8950 3100
Wire Notes Line
	8950 3100 8950 1900
$Sheet
S 6300 1400 600  350 
U 6355F1B0
F0 "Capteurs" 50
F1 "capteurs.sch" 50
F2 "TEMP1" O L 6300 1550 50 
F3 "TEMP2" O L 6300 1650 50 
$EndSheet
Wire Wire Line
	5700 1550 6300 1550
Wire Wire Line
	5700 1650 6300 1650
$Comp
L Connector_Generic:Conn_01x04 J6
U 1 1 6357A7B6
P 10600 5650
F 0 "J6" H 10750 5650 50  0000 C CNN
F 1 "OUT_12V" H 10850 5550 50  0000 C CNN
F 2 "Connector_JST:JST_PH_B4B-PH-K_1x04_P2.00mm_Vertical" H 10600 5650 50  0001 C CNN
F 3 "~" H 10600 5650 50  0001 C CNN
	1    10600 5650
	1    0    0    -1  
$EndComp
Wire Wire Line
	9900 4000 10400 4000
Text Label 8450 5300 0    50   ~ 0
IN_OUT1
Wire Wire Line
	8450 5300 8850 5300
Text Label 8450 5400 0    50   ~ 0
IN_OUT2
Wire Wire Line
	8450 5400 8850 5400
Text Label 2900 3950 0    50   ~ 0
IN_OUT1
Text Label 2900 4050 0    50   ~ 0
IN_OUT2
$Comp
L MCU_ST_STM32F4:STM32F401RCTx U1
U 1 1 635A5CF1
P 5100 3050
F 0 "U1" H 5000 3800 50  0000 C CNN
F 1 "STM32F401RCTx" H 5000 3700 50  0000 C CNN
F 2 "Package_QFP:LQFP-64_10x10mm_P0.5mm" H 4500 1350 50  0001 R CNN
F 3 "http://www.st.com/st-web-ui/static/active/en/resource/technical/document/datasheet/DM00086815.pdf" H 5100 3050 50  0001 C CNN
	1    5100 3050
	1    0    0    -1  
$EndComp
Wire Wire Line
	5000 4850 5100 4850
Wire Wire Line
	5200 4850 5300 4850
Connection ~ 5200 4850
Connection ~ 5100 4850
Wire Wire Line
	5000 4850 4900 4850
Connection ~ 5000 4850
Wire Wire Line
	5100 4950 5100 4850
Wire Wire Line
	5100 4850 5200 4850
$Comp
L Connector_Generic:Conn_01x05 J4
U 1 1 635C3CD9
P 7100 4450
F 0 "J4" H 7180 4492 50  0000 L CNN
F 1 "LEDs_TB" H 7180 4401 50  0000 L CNN
F 2 "Connector_JST:JST_PH_B5B-PH-K_1x05_P2.00mm_Vertical" H 7100 4450 50  0001 C CNN
F 3 "~" H 7100 4450 50  0001 C CNN
	1    7100 4450
	1    0    0    1   
$EndComp
$Comp
L Device:R_Small R12
U 1 1 635CBD9A
P 5900 4650
F 0 "R12" V 5704 4650 50  0000 C CNN
F 1 "270" V 5795 4650 50  0000 C CNN
F 2 "Resistor_SMD:R_0603_1608Metric" H 5900 4650 50  0001 C CNN
F 3 "~" H 5900 4650 50  0001 C CNN
	1    5900 4650
	0    1    1    0   
$EndComp
$Comp
L Device:R_Small R13
U 1 1 635D1741
P 6100 4550
F 0 "R13" V 5904 4550 50  0000 C CNN
F 1 "270" V 5995 4550 50  0000 C CNN
F 2 "Resistor_SMD:R_0603_1608Metric" H 6100 4550 50  0001 C CNN
F 3 "~" H 6100 4550 50  0001 C CNN
	1    6100 4550
	0    1    1    0   
$EndComp
$Comp
L Device:R_Small R14
U 1 1 635D3DA9
P 6350 4450
F 0 "R14" V 6154 4450 50  0000 C CNN
F 1 "270" V 6245 4450 50  0000 C CNN
F 2 "Resistor_SMD:R_0603_1608Metric" H 6350 4450 50  0001 C CNN
F 3 "~" H 6350 4450 50  0001 C CNN
	1    6350 4450
	0    1    1    0   
$EndComp
$Comp
L Device:R_Small R15
U 1 1 635D65EB
P 6600 4350
F 0 "R15" V 6404 4350 50  0000 C CNN
F 1 "270" V 6495 4350 50  0000 C CNN
F 2 "Resistor_SMD:R_0603_1608Metric" H 6600 4350 50  0001 C CNN
F 3 "~" H 6600 4350 50  0001 C CNN
	1    6600 4350
	0    1    1    0   
$EndComp
Wire Wire Line
	5700 4650 5800 4650
Wire Wire Line
	6000 4550 5700 4550
Wire Wire Line
	6250 4450 5700 4450
Wire Wire Line
	5700 4350 6500 4350
Wire Wire Line
	6700 4350 6850 4350
Wire Wire Line
	6900 4450 6600 4450
Wire Wire Line
	6200 4550 6350 4550
$Comp
L power:GND #PWR020
U 1 1 635F41CA
P 6850 4200
F 0 "#PWR020" H 6850 3950 50  0001 C CNN
F 1 "GND" H 6855 4027 50  0000 C CNN
F 2 "" H 6850 4200 50  0001 C CNN
F 3 "" H 6850 4200 50  0001 C CNN
	1    6850 4200
	-1   0    0    1   
$EndComp
Wire Wire Line
	6850 4200 6850 4250
Wire Wire Line
	6850 4250 6900 4250
$Comp
L Device:LED D5
U 1 1 63603CA6
P 6600 4850
F 0 "D5" V 6639 4732 50  0000 R CNN
F 1 "L_HOUB" V 6548 4732 50  0000 R CNN
F 2 "LED_THT:LED_D5.0mm" H 6600 4850 50  0001 C CNN
F 3 "~" H 6600 4850 50  0001 C CNN
F 4 "C2290" H 6600 4850 50  0001 C CNN "LCSC"
	1    6600 4850
	0    -1   -1   0   
$EndComp
$Comp
L Device:LED D6
U 1 1 63606F42
P 6850 4850
F 0 "D6" V 6889 4732 50  0000 R CNN
F 1 "L_REFROID" V 6798 4732 50  0000 R CNN
F 2 "LED_THT:LED_D5.0mm" H 6850 4850 50  0001 C CNN
F 3 "~" H 6850 4850 50  0001 C CNN
F 4 "C2290" H 6850 4850 50  0001 C CNN "LCSC"
	1    6850 4850
	0    -1   -1   0   
$EndComp
Wire Wire Line
	6850 4700 6850 4350
Connection ~ 6850 4350
Wire Wire Line
	6850 4350 6900 4350
Wire Wire Line
	6600 4700 6600 4450
Connection ~ 6600 4450
Wire Wire Line
	6600 4450 6450 4450
Connection ~ 6350 4550
Wire Wire Line
	6350 4550 6900 4550
Wire Wire Line
	6850 5100 6850 5000
Wire Wire Line
	6600 5000 6600 5100
Wire Wire Line
	6350 4700 6350 4550
Wire Wire Line
	6350 5100 6350 5000
$Comp
L Device:LED D4
U 1 1 635FFF37
P 6350 4850
F 0 "D4" V 6389 4732 50  0000 R CNN
F 1 "L_EMPAT" V 6298 4732 50  0000 R CNN
F 2 "LED_THT:LED_D5.0mm" H 6350 4850 50  0001 C CNN
F 3 "~" H 6350 4850 50  0001 C CNN
F 4 "C2290" H 6350 4850 50  0001 C CNN "LCSC"
	1    6350 4850
	0    -1   -1   0   
$EndComp
Wire Wire Line
	6600 5100 6850 5100
Connection ~ 6600 5100
Connection ~ 6350 5100
Wire Wire Line
	6100 5100 6350 5100
$Comp
L power:GND #PWR017
U 1 1 635F922F
P 6500 5150
F 0 "#PWR017" H 6500 4900 50  0001 C CNN
F 1 "GND" H 6505 4977 50  0000 C CNN
F 2 "" H 6500 5150 50  0001 C CNN
F 3 "" H 6500 5150 50  0001 C CNN
	1    6500 5150
	1    0    0    -1  
$EndComp
Wire Wire Line
	6100 5000 6100 5100
$Comp
L Device:LED D3
U 1 1 635F8238
P 6100 4850
F 0 "D3" V 6139 4732 50  0000 R CNN
F 1 "L_INIT" V 6048 4732 50  0000 R CNN
F 2 "LED_THT:LED_D5.0mm" H 6100 4850 50  0001 C CNN
F 3 "~" H 6100 4850 50  0001 C CNN
F 4 "C2290" H 6100 4850 50  0001 C CNN "LCSC"
	1    6100 4850
	0    -1   -1   0   
$EndComp
Wire Wire Line
	6100 4650 6000 4650
Wire Wire Line
	6900 4650 6100 4650
Connection ~ 6100 4650
Wire Wire Line
	6100 4700 6100 4650
Wire Wire Line
	6350 5100 6500 5100
Wire Wire Line
	6500 5150 6500 5100
Connection ~ 6500 5100
Wire Wire Line
	6500 5100 6600 5100
Wire Wire Line
	6150 2850 5700 2850
Text Label 6150 2850 2    50   ~ 0
SWDIO
Wire Wire Line
	6150 2950 5700 2950
Text Label 6150 2950 2    50   ~ 0
SWCLK
Text Label 2900 4150 0    50   ~ 0
IN_P1
Text Label 2900 4250 0    50   ~ 0
IN_P2
Text Label 2900 4350 0    50   ~ 0
IN_P3
$Comp
L power:GND #PWR06
U 1 1 63682721
P 3850 5550
F 0 "#PWR06" H 3850 5300 50  0001 C CNN
F 1 "GND" H 3855 5377 50  0000 C CNN
F 2 "" H 3850 5550 50  0001 C CNN
F 3 "" H 3850 5550 50  0001 C CNN
	1    3850 5550
	1    0    0    -1  
$EndComp
$Comp
L Device:R_Small R3
U 1 1 636B0F65
P 3250 4850
F 0 "R3" H 3309 4896 50  0000 L CNN
F 1 "47k" H 3309 4805 50  0000 L CNN
F 2 "Resistor_SMD:R_0603_1608Metric" H 3250 4850 50  0001 C CNN
F 3 "~" H 3250 4850 50  0001 C CNN
	1    3250 4850
	1    0    0    -1  
$EndComp
Wire Wire Line
	3250 4750 3250 4650
$Comp
L Device:R_Small R7
U 1 1 636B9184
P 3850 4850
F 0 "R7" H 3909 4896 50  0000 L CNN
F 1 "47k" H 3909 4805 50  0000 L CNN
F 2 "Resistor_SMD:R_0603_1608Metric" H 3850 4850 50  0001 C CNN
F 3 "~" H 3850 4850 50  0001 C CNN
	1    3850 4850
	1    0    0    -1  
$EndComp
$Comp
L Device:R_Small R10
U 1 1 636BD37A
P 4150 4850
F 0 "R10" H 4209 4896 50  0000 L CNN
F 1 "47k" H 4209 4805 50  0000 L CNN
F 2 "Resistor_SMD:R_0603_1608Metric" H 4150 4850 50  0001 C CNN
F 3 "~" H 4150 4850 50  0001 C CNN
	1    4150 4850
	1    0    0    -1  
$EndComp
$Comp
L Device:R_Small R4
U 1 1 636D3D46
P 3400 5100
F 0 "R4" H 3459 5146 50  0000 L CNN
F 1 "47k" H 3459 5055 50  0000 L CNN
F 2 "Resistor_SMD:R_0603_1608Metric" H 3400 5100 50  0001 C CNN
F 3 "~" H 3400 5100 50  0001 C CNN
	1    3400 5100
	1    0    0    -1  
$EndComp
Wire Wire Line
	3250 4950 3250 5400
Wire Wire Line
	3850 5400 3850 5550
Wire Wire Line
	3400 5200 3400 5400
Wire Wire Line
	3400 5000 3400 4550
$Comp
L Device:R_Small R6
U 1 1 63739B1D
P 3700 5100
F 0 "R6" H 3759 5146 50  0000 L CNN
F 1 "47k" H 3759 5055 50  0000 L CNN
F 2 "Resistor_SMD:R_0603_1608Metric" H 3700 5100 50  0001 C CNN
F 3 "~" H 3700 5100 50  0001 C CNN
	1    3700 5100
	1    0    0    -1  
$EndComp
$Comp
L Device:R_Small R8
U 1 1 63739B23
P 4000 5100
F 0 "R8" H 4059 5146 50  0000 L CNN
F 1 "47k" H 4059 5055 50  0000 L CNN
F 2 "Resistor_SMD:R_0603_1608Metric" H 4000 5100 50  0001 C CNN
F 3 "~" H 4000 5100 50  0001 C CNN
	1    4000 5100
	1    0    0    -1  
$EndComp
Wire Wire Line
	3700 5000 3700 4350
Wire Wire Line
	3850 4750 3850 4250
Wire Wire Line
	4000 5000 4000 4150
Connection ~ 3400 5400
Wire Wire Line
	3250 5400 3400 5400
Wire Wire Line
	3700 5200 3700 5400
Connection ~ 3700 5400
Wire Wire Line
	3850 4950 3850 5400
Wire Wire Line
	3700 5400 3850 5400
Connection ~ 3850 5400
$Comp
L Device:R_Small R11
U 1 1 6377393E
P 4300 5100
F 0 "R11" H 4359 5146 50  0000 L CNN
F 1 "47k" H 4359 5055 50  0000 L CNN
F 2 "Resistor_SMD:R_0603_1608Metric" H 4300 5100 50  0001 C CNN
F 3 "~" H 4300 5100 50  0001 C CNN
	1    4300 5100
	1    0    0    -1  
$EndComp
Wire Wire Line
	4300 5200 4300 5400
Wire Wire Line
	4000 5200 4000 5400
Connection ~ 4000 5400
Wire Wire Line
	4150 4950 4150 5400
Wire Wire Line
	4000 5400 4150 5400
Connection ~ 4150 5400
Wire Wire Line
	4150 5400 4300 5400
Wire Wire Line
	4150 4750 4150 4050
Wire Wire Line
	4300 5000 4300 3950
Wire Wire Line
	3850 5400 4000 5400
Connection ~ 3400 4550
Wire Wire Line
	3400 4550 4400 4550
Connection ~ 3700 4350
Wire Wire Line
	3700 4350 4400 4350
Connection ~ 4000 4150
Wire Wire Line
	4000 4150 4400 4150
Connection ~ 4300 3950
Wire Wire Line
	4300 3950 4400 3950
Wire Wire Line
	2900 3950 4300 3950
Wire Wire Line
	2900 4550 3400 4550
Wire Wire Line
	2900 4350 3700 4350
Wire Wire Line
	2900 4150 4000 4150
Connection ~ 3850 4250
Wire Wire Line
	3850 4250 4400 4250
Wire Wire Line
	2900 4250 3850 4250
Connection ~ 4150 4050
Wire Wire Line
	4150 4050 4400 4050
Wire Wire Line
	2900 4050 4150 4050
Connection ~ 3250 4650
Wire Wire Line
	3250 4650 4400 4650
Wire Wire Line
	2900 4650 3250 4650
Text Label 10000 4350 0    50   ~ 0
NEUTRE
Wire Wire Line
	9900 4250 10400 4250
Wire Wire Line
	10400 4350 10000 4350
Text Label 10000 4550 0    50   ~ 0
NEUTRE
Wire Wire Line
	9900 4450 10400 4450
Wire Wire Line
	10400 4550 10000 4550
Text Label 8450 3900 0    50   ~ 0
IN_P1
Text Label 8450 4000 0    50   ~ 0
IN_P2
Text Label 8450 4100 0    50   ~ 0
IN_P3
Text Label 8450 4200 0    50   ~ 0
IN_P4
Wire Wire Line
	8450 3900 8850 3900
Wire Wire Line
	8850 4000 8450 4000
Wire Wire Line
	8450 4100 8850 4100
Wire Wire Line
	8850 4200 8450 4200
$Comp
L power:GND #PWR08
U 1 1 638B0356
P 4350 1750
F 0 "#PWR08" H 4350 1500 50  0001 C CNN
F 1 "GND" H 4355 1577 50  0000 C CNN
F 2 "" H 4350 1750 50  0001 C CNN
F 3 "" H 4350 1750 50  0001 C CNN
	1    4350 1750
	0    1    1    0   
$EndComp
Wire Wire Line
	4350 1750 4400 1750
Text Label 8450 5600 0    50   ~ 0
i_OUT1
Text Label 8450 5700 0    50   ~ 0
i_OUT2
Wire Wire Line
	8450 5600 8850 5600
Wire Wire Line
	8850 5700 8450 5700
$Comp
L Connector_Generic:Conn_01x10 J3
U 1 1 639A618C
P 6700 3450
F 0 "J3" H 6780 3442 50  0000 L CNN
F 1 "MORE_PINs" H 6780 3351 50  0000 L CNN
F 2 "Connector_PinSocket_2.54mm:PinSocket_2x05_P2.54mm_Vertical" H 6700 3450 50  0001 C CNN
F 3 "~" H 6700 3450 50  0001 C CNN
	1    6700 3450
	1    0    0    -1  
$EndComp
$Comp
L power:+3.3V #PWR014
U 1 1 639EE5AC
P 6500 3150
F 0 "#PWR014" H 6500 3000 50  0001 C CNN
F 1 "+3.3V" V 6515 3278 50  0000 L CNN
F 2 "" H 6500 3150 50  0001 C CNN
F 3 "" H 6500 3150 50  0001 C CNN
	1    6500 3150
	0    -1   -1   0   
$EndComp
$Comp
L power:GND #PWR013
U 1 1 639EF0FD
P 6500 3050
F 0 "#PWR013" H 6500 2800 50  0001 C CNN
F 1 "GND" V 6505 2922 50  0000 R CNN
F 2 "" H 6500 3050 50  0001 C CNN
F 3 "" H 6500 3050 50  0001 C CNN
	1    6500 3050
	0    1    1    0   
$EndComp
Text Label 5850 3250 0    50   ~ 0
PB0
Text Label 5850 3350 0    50   ~ 0
PB1
Text Label 5850 3450 0    50   ~ 0
PB2
Text Label 5850 3550 0    50   ~ 0
PB3
Text Label 5850 3650 0    50   ~ 0
PB4
Text Label 5850 3750 0    50   ~ 0
PB5
Text Label 5850 3850 0    50   ~ 0
PB6
Text Label 5850 3950 0    50   ~ 0
PB7
$Comp
L power:+3.3V #PWR024
U 1 1 63A8D148
P 6750 1950
F 0 "#PWR024" H 6750 1800 50  0001 C CNN
F 1 "+3.3V" H 6765 2123 50  0000 C CNN
F 2 "" H 6750 1950 50  0001 C CNN
F 3 "" H 6750 1950 50  0001 C CNN
	1    6750 1950
	0    1    1    0   
$EndComp
$Comp
L Device:R_Small R16
U 1 1 63A8DD24
P 6550 1950
F 0 "R16" H 6609 1996 50  0000 L CNN
F 1 "47k" H 6609 1905 50  0000 L CNN
F 2 "Resistor_SMD:R_0603_1608Metric" H 6550 1950 50  0001 C CNN
F 3 "~" H 6550 1950 50  0001 C CNN
	1    6550 1950
	0    1    1    0   
$EndComp
Wire Wire Line
	6750 1950 6650 1950
$Comp
L power:+3.3V #PWR01
U 1 1 63AAEE98
P 850 1850
F 0 "#PWR01" H 850 1700 50  0001 C CNN
F 1 "+3.3V" H 865 2023 50  0000 C CNN
F 2 "" H 850 1850 50  0001 C CNN
F 3 "" H 850 1850 50  0001 C CNN
	1    850  1850
	1    0    0    -1  
$EndComp
$Comp
L Device:R_Small R1
U 1 1 63AAF32F
P 850 2000
F 0 "R1" H 909 2046 50  0000 L CNN
F 1 "470" H 909 1955 50  0000 L CNN
F 2 "Resistor_SMD:R_0603_1608Metric" H 850 2000 50  0001 C CNN
F 3 "~" H 850 2000 50  0001 C CNN
	1    850  2000
	1    0    0    -1  
$EndComp
Wire Wire Line
	850  1900 850  1850
$Comp
L Device:LED D1
U 1 1 63AB99C0
P 850 2300
F 0 "D1" V 889 2182 50  0000 R CNN
F 1 "LED_3V3" V 798 2182 50  0000 R CNN
F 2 "LED_THT:LED_D5.0mm" H 850 2300 50  0001 C CNN
F 3 "~" H 850 2300 50  0001 C CNN
F 4 "C2286" H 850 2300 50  0001 C CNN "LCSC"
	1    850  2300
	0    -1   -1   0   
$EndComp
Wire Wire Line
	850  2100 850  2150
$Comp
L power:GND #PWR02
U 1 1 63AC483C
P 850 2500
F 0 "#PWR02" H 850 2250 50  0001 C CNN
F 1 "GND" H 855 2327 50  0000 C CNN
F 2 "" H 850 2500 50  0001 C CNN
F 3 "" H 850 2500 50  0001 C CNN
	1    850  2500
	1    0    0    -1  
$EndComp
Wire Wire Line
	850  2500 850  2450
NoConn ~ 4400 2950
NoConn ~ 5700 4050
NoConn ~ 5700 4150
NoConn ~ 5700 4250
NoConn ~ 5700 2150
NoConn ~ 5700 2250
NoConn ~ 5700 2350
Wire Wire Line
	4900 1350 4900 1300
Wire Wire Line
	4900 1300 5000 1300
Connection ~ 5000 1300
$Comp
L power:+3.3V #PWR080
U 1 1 63C78967
P 3100 2050
F 0 "#PWR080" H 3100 1900 50  0001 C CNN
F 1 "+3.3V" H 3115 2223 50  0000 C CNN
F 2 "" H 3100 2050 50  0001 C CNN
F 3 "" H 3100 2050 50  0001 C CNN
	1    3100 2050
	0    -1   -1   0   
$EndComp
$Comp
L Device:C_Small C?
U 1 1 63C7BE8E
P 3550 2150
AR Path="/634B435D/63C7BE8E" Ref="C?"  Part="1" 
AR Path="/63C7BE8E" Ref="C23"  Part="1" 
F 0 "C23" H 3350 2250 50  0000 L CNN
F 1 "1u" H 3350 2150 50  0000 L CNN
F 2 "Capacitor_SMD:C_0603_1608Metric" H 3550 2150 50  0001 C CNN
F 3 "~" H 3550 2150 50  0001 C CNN
	1    3550 2150
	1    0    0    -1  
$EndComp
Connection ~ 3550 2450
Wire Wire Line
	3550 2050 4400 2050
Wire Wire Line
	3550 2250 3550 2450
Connection ~ 3550 2050
$Comp
L Device:C_Small C?
U 1 1 63CC867F
P 3300 1850
AR Path="/634B435D/63CC867F" Ref="C?"  Part="1" 
AR Path="/63CC867F" Ref="C22"  Part="1" 
F 0 "C22" H 3392 1896 50  0000 L CNN
F 1 "2.2u" H 3392 1805 50  0000 L CNN
F 2 "Capacitor_SMD:C_0603_1608Metric" H 3300 1850 50  0001 C CNN
F 3 "~" H 3300 1850 50  0001 C CNN
	1    3300 1850
	-1   0    0    1   
$EndComp
Wire Wire Line
	3550 2050 3100 2050
Wire Wire Line
	4400 1950 3550 1950
Wire Wire Line
	3550 1950 3550 1750
Wire Wire Line
	3550 1750 3300 1750
Wire Wire Line
	3300 1950 3300 2450
Wire Wire Line
	3300 2450 3550 2450
$Comp
L Device:R_Small R53
U 1 1 63DD3B5F
P 1400 2000
F 0 "R53" H 1459 2046 50  0000 L CNN
F 1 "470" H 1459 1955 50  0000 L CNN
F 2 "Resistor_SMD:R_0603_1608Metric" H 1400 2000 50  0001 C CNN
F 3 "~" H 1400 2000 50  0001 C CNN
	1    1400 2000
	1    0    0    -1  
$EndComp
$Comp
L Device:LED D15
U 1 1 63DD3B65
P 1400 2300
F 0 "D15" V 1439 2182 50  0000 R CNN
F 1 "LED_WIFI" V 1348 2182 50  0000 R CNN
F 2 "LED_THT:LED_D5.0mm" H 1400 2300 50  0001 C CNN
F 3 "~" H 1400 2300 50  0001 C CNN
F 4 "C72041" H 1400 2300 50  0001 C CNN "LCSC"
	1    1400 2300
	0    -1   -1   0   
$EndComp
Wire Wire Line
	1400 2100 1400 2150
$Comp
L power:GND #PWR0101
U 1 1 63DD3B6C
P 1400 2500
F 0 "#PWR0101" H 1400 2250 50  0001 C CNN
F 1 "GND" H 1405 2327 50  0000 C CNN
F 2 "" H 1400 2500 50  0001 C CNN
F 3 "" H 1400 2500 50  0001 C CNN
	1    1400 2500
	1    0    0    -1  
$EndComp
Wire Wire Line
	1400 2500 1400 2450
Text Label 1400 1750 0    50   ~ 0
LED_WIFI
Wire Wire Line
	1400 1750 1400 1900
Text Label 6150 3050 2    50   ~ 0
LED_WIFI
Wire Wire Line
	5700 3250 6500 3250
Wire Wire Line
	5700 3350 6500 3350
Wire Wire Line
	5700 3450 6500 3450
Wire Wire Line
	5700 3550 6500 3550
Wire Wire Line
	5700 3650 6500 3650
Wire Wire Line
	5700 3750 6500 3750
Wire Wire Line
	5700 3850 6500 3850
Wire Wire Line
	5700 3950 6500 3950
Wire Wire Line
	5700 3050 6150 3050
Wire Wire Line
	9900 5650 10400 5650
Wire Wire Line
	9900 5750 10400 5750
Text Label 8450 4400 0    50   ~ 0
SW_H1
Text Label 8450 4500 0    50   ~ 0
SW_H2
Text Label 8450 4600 0    50   ~ 0
SW_P1
Text Label 8450 4700 0    50   ~ 0
SW_P2
Wire Wire Line
	8450 4400 8850 4400
Wire Wire Line
	8850 4500 8450 4500
Wire Wire Line
	8450 4600 8850 4600
Wire Wire Line
	8850 4700 8450 4700
Text Label 8450 4800 0    50   ~ 0
SW_P3
Text Label 8450 5000 0    50   ~ 0
SW_O1
Text Label 8450 5100 0    50   ~ 0
SW_O2
Wire Wire Line
	8450 4800 8850 4800
Wire Wire Line
	8450 5000 8850 5000
Wire Wire Line
	8850 5100 8450 5100
Text Label 2900 3650 0    50   ~ 0
SW_O1
Text Label 2900 3750 0    50   ~ 0
SW_O2
$Comp
L power:+3.3V #PWR0103
U 1 1 641AB75F
P 1150 3050
F 0 "#PWR0103" H 1150 2900 50  0001 C CNN
F 1 "+3.3V" V 1165 3178 50  0000 L CNN
F 2 "" H 1150 3050 50  0001 C CNN
F 3 "" H 1150 3050 50  0001 C CNN
	1    1150 3050
	0    1    1    0   
$EndComp
$Comp
L power:GND #PWR0104
U 1 1 641AC742
P 1150 3150
F 0 "#PWR0104" H 1150 2900 50  0001 C CNN
F 1 "GND" V 1155 3022 50  0000 R CNN
F 2 "" H 1150 3150 50  0001 C CNN
F 3 "" H 1150 3150 50  0001 C CNN
	1    1150 3150
	0    -1   -1   0   
$EndComp
$Comp
L Connector_Generic:Conn_01x02 J16
U 1 1 641AD5F2
P 950 3150
F 0 "J16" H 868 2825 50  0000 C CNN
F 1 "Aux_3V3" H 868 2916 50  0000 C CNN
F 2 "Connector_JST:JST_PH_B2B-PH-K_1x02_P2.00mm_Vertical" H 950 3150 50  0001 C CNN
F 3 "~" H 950 3150 50  0001 C CNN
	1    950  3150
	-1   0    0    1   
$EndComp
Wire Wire Line
	10400 4100 10000 4100
Text Label 10000 4100 0    50   ~ 0
NEUTRE
$Sheet
S 8850 3400 1050 2700
U 634DC0EA
F0 "Puissance" 50
F1 "puissance.sch" 50
F2 "IN_Heater1" I L 8850 3600 50 
F3 "PHASE" I L 8850 5900 50 
F4 "HEATER1" O R 9900 3800 50 
F5 "IN_Heater2" I L 8850 3700 50 
F6 "HEATER2" O R 9900 4000 50 
F7 "IN_OUT1" I L 8850 5300 50 
F8 "IN_OUT2" I L 8850 5400 50 
F9 "IN_Pump1" I L 8850 3900 50 
F10 "PUMP1" O R 9900 4250 50 
F11 "IN_Pump2" I L 8850 4000 50 
F12 "PUMP2" O R 9900 4450 50 
F13 "IN_Pump3" I L 8850 4100 50 
F14 "SW_H1" O L 8850 4400 50 
F15 "SW_H2" O L 8850 4500 50 
F16 "SW_P1" O L 8850 4600 50 
F17 "SW_P2" O L 8850 4700 50 
F18 "SW_P3" O L 8850 4800 50 
F19 "SW_O1" O L 8850 5000 50 
F20 "SW_O2" O L 8850 5100 50 
F21 "OUT2_12" O R 9900 5750 50 
F22 "OUT2_0" O R 9900 5850 50 
F23 "OUT1_12" O R 9900 5550 50 
F24 "OUT1_0" O R 9900 5650 50 
F25 "PUMP3_OUT" O R 9900 4800 50 
F26 "PUMP3_IN" I R 9900 4900 50 
$EndSheet
Text Label 10000 3350 0    50   ~ 0
NEUTRE
Wire Wire Line
	10400 3350 10000 3350
Text Label 10000 3450 0    50   ~ 0
PHASE_IN
Wire Wire Line
	10000 3450 10400 3450
Wire Wire Line
	10000 3450 10000 3550
Wire Wire Line
	10000 3550 10400 3550
Text Label 10000 3650 0    50   ~ 0
PHASE
Wire Wire Line
	10400 3650 10000 3650
Wire Wire Line
	1100 1050 1600 1050
Wire Wire Line
	1600 950  1100 950 
Text Label 6150 1950 2    50   ~ 0
SW_Mode
Wire Wire Line
	5700 1950 6450 1950
Wire Wire Line
	2750 3750 4400 3750
$Comp
L Device:C_Small C?
U 1 1 63B93F37
P 7550 850
AR Path="/634B435D/63B93F37" Ref="C?"  Part="1" 
AR Path="/63B93F37" Ref="C32"  Part="1" 
F 0 "C32" H 7642 896 50  0000 L CNN
F 1 "100n" H 7642 805 50  0000 L CNN
F 2 "Capacitor_SMD:C_0603_1608Metric" H 7550 850 50  0001 C CNN
F 3 "~" H 7550 850 50  0001 C CNN
	1    7550 850 
	1    0    0    -1  
$EndComp
$Comp
L power:+3.3V #PWR?
U 1 1 63B93F3D
P 7550 750
AR Path="/634B435D/63B93F3D" Ref="#PWR?"  Part="1" 
AR Path="/63B93F3D" Ref="#PWR021"  Part="1" 
F 0 "#PWR021" H 7550 600 50  0001 C CNN
F 1 "+3.3V" H 7565 923 50  0000 C CNN
F 2 "" H 7550 750 50  0001 C CNN
F 3 "" H 7550 750 50  0001 C CNN
	1    7550 750 
	1    0    0    -1  
$EndComp
$Comp
L power:GND #PWR?
U 1 1 63B93F43
P 7550 950
AR Path="/634B435D/63B93F43" Ref="#PWR?"  Part="1" 
AR Path="/63B93F43" Ref="#PWR083"  Part="1" 
F 0 "#PWR083" H 7550 700 50  0001 C CNN
F 1 "GND" H 7555 777 50  0000 C CNN
F 2 "" H 7550 950 50  0001 C CNN
F 3 "" H 7550 950 50  0001 C CNN
	1    7550 950 
	1    0    0    -1  
$EndComp
$Comp
L Switch:SW_Push SW10
U 1 1 63C3B667
P 8150 2600
F 0 "SW10" H 8150 2885 50  0000 C CNN
F 1 "WIFI_RESET" H 8150 2794 50  0000 C CNN
F 2 "Button_Switch_THT:SW_PUSH_6mm_H4.3mm" H 8150 2800 50  0001 C CNN
F 3 "~" H 8150 2800 50  0001 C CNN
	1    8150 2600
	0    -1   -1   0   
$EndComp
$Comp
L power:GND #PWR085
U 1 1 63C3B66D
P 8250 2800
F 0 "#PWR085" H 8250 2550 50  0001 C CNN
F 1 "GND" H 8255 2627 50  0000 C CNN
F 2 "" H 8250 2800 50  0001 C CNN
F 3 "" H 8250 2800 50  0001 C CNN
	1    8250 2800
	1    0    0    -1  
$EndComp
Text Label 8400 2350 0    50   ~ 0
WIFI_RST
Wire Wire Line
	8150 2350 8150 2400
$Comp
L Device:C_Small C?
U 1 1 63C3B675
P 8350 2600
AR Path="/634B435D/63C3B675" Ref="C?"  Part="1" 
AR Path="/63C3B675" Ref="C33"  Part="1" 
F 0 "C33" H 8442 2646 50  0000 L CNN
F 1 "10n" H 8442 2555 50  0000 L CNN
F 2 "Capacitor_SMD:C_0603_1608Metric" H 8350 2600 50  0001 C CNN
F 3 "~" H 8350 2600 50  0001 C CNN
	1    8350 2600
	1    0    0    -1  
$EndComp
Wire Wire Line
	8350 2800 8250 2800
Wire Wire Line
	8350 2700 8350 2800
Wire Wire Line
	8350 2500 8350 2350
Wire Wire Line
	8150 2350 8350 2350
Connection ~ 8350 2350
Wire Wire Line
	8350 2350 8400 2350
Connection ~ 8250 2800
Wire Wire Line
	8250 2800 8150 2800
$Comp
L Device:R_Small R62
U 1 1 63C4CF1E
P 8150 2200
F 0 "R62" H 8209 2246 50  0000 L CNN
F 1 "47k" H 8209 2155 50  0000 L CNN
F 2 "Resistor_SMD:R_0603_1608Metric" H 8150 2200 50  0001 C CNN
F 3 "~" H 8150 2200 50  0001 C CNN
	1    8150 2200
	1    0    0    -1  
$EndComp
$Comp
L power:+3.3V #PWR?
U 1 1 63C4CF24
P 8150 2100
AR Path="/634B435D/63C4CF24" Ref="#PWR?"  Part="1" 
AR Path="/63C4CF24" Ref="#PWR084"  Part="1" 
F 0 "#PWR084" H 8150 1950 50  0001 C CNN
F 1 "+3.3V" H 8165 2273 50  0000 C CNN
F 2 "" H 8150 2100 50  0001 C CNN
F 3 "" H 8150 2100 50  0001 C CNN
	1    8150 2100
	1    0    0    -1  
$EndComp
Wire Wire Line
	8150 2300 8150 2350
Connection ~ 8150 2350
Text Label 6150 2050 2    50   ~ 0
WIFI_RST
Wire Wire Line
	5700 2050 6150 2050
$Comp
L Connector_Generic:Conn_01x04 J2
U 1 1 634E90C2
P 10600 3450
F 0 "J2" H 10680 3442 50  0000 L CNN
F 1 "BORN1" H 10680 3351 50  0000 L CNN
F 2 "Connector_Phoenix_GMSTB:PhoenixContact_GMSTBVA_2,5_4-G-7,62_1x04_P7.62mm_Vertical" H 10600 3450 50  0001 C CNN
F 3 "~" H 10600 3450 50  0001 C CNN
F 4 "C430614" H 10600 3450 50  0001 C CNN "LCSC"
	1    10600 3450
	1    0    0    -1  
$EndComp
$Comp
L Connector_Generic:Conn_01x04 J5
U 1 1 6352DDDA
P 10600 3900
F 0 "J5" H 10680 3892 50  0000 L CNN
F 1 "BORN2" H 10680 3801 50  0000 L CNN
F 2 "Connector_Phoenix_GMSTB:PhoenixContact_GMSTBVA_2,5_4-G-7,62_1x04_P7.62mm_Vertical" H 10600 3900 50  0001 C CNN
F 3 "~" H 10600 3900 50  0001 C CNN
F 4 "C430614" H 10600 3900 50  0001 C CNN "LCSC"
	1    10600 3900
	1    0    0    -1  
$EndComp
$Comp
L Connector_Generic:Conn_01x04 J8
U 1 1 6353E486
P 10600 4350
F 0 "J8" H 10680 4342 50  0000 L CNN
F 1 "BORN3" H 10680 4251 50  0000 L CNN
F 2 "Connector_Phoenix_GMSTB:PhoenixContact_GMSTBVA_2,5_4-G-7,62_1x04_P7.62mm_Vertical" H 10600 4350 50  0001 C CNN
F 3 "~" H 10600 4350 50  0001 C CNN
F 4 "C430614" H 10600 4350 50  0001 C CNN "LCSC"
	1    10600 4350
	1    0    0    -1  
$EndComp
$Comp
L Connector_Generic:Conn_01x04 J9
U 1 1 6355D67E
P 10600 4800
F 0 "J9" H 10680 4792 50  0000 L CNN
F 1 "BORN4" H 10680 4701 50  0000 L CNN
F 2 "Connector_Phoenix_GMSTB:PhoenixContact_GMSTBVA_2,5_4-G-7,62_1x04_P7.62mm_Vertical" H 10600 4800 50  0001 C CNN
F 3 "~" H 10600 4800 50  0001 C CNN
F 4 "C430614" H 10600 4800 50  0001 C CNN "LCSC"
	1    10600 4800
	1    0    0    -1  
$EndComp
$Comp
L Mechanical:MountingHole H1
U 1 1 6373F9AC
P 950 4450
F 0 "H1" H 1050 4496 50  0000 L CNN
F 1 "Image Hop" H 1050 4405 50  0000 L CNN
F 2 "bier_lib:hop" H 950 4450 50  0001 C CNN
F 3 "~" H 950 4450 50  0001 C CNN
	1    950  4450
	1    0    0    -1  
$EndComp
$Comp
L Mechanical:MountingHole H2
U 1 1 63740C2C
P 950 4800
F 0 "H2" H 1050 4846 50  0000 L CNN
F 1 "OpenHardware" H 1050 4755 50  0000 L CNN
F 2 "Symbol:OSHW-Logo2_9.8x8mm_SilkScreen" H 950 4800 50  0001 C CNN
F 3 "~" H 950 4800 50  0001 C CNN
	1    950  4800
	1    0    0    -1  
$EndComp
Wire Wire Line
	6950 6150 7050 6150
$Comp
L Device:C_Small C?
U 1 1 63524F2D
P 7400 5950
AR Path="/634DC0EA/63524F2D" Ref="C?"  Part="1" 
AR Path="/63524F2D" Ref="C34"  Part="1" 
F 0 "C34" H 7308 5904 50  0000 R CNN
F 1 "10n" H 7308 5995 50  0000 R CNN
F 2 "Capacitor_SMD:C_0603_1608Metric" H 7400 5950 50  0001 C CNN
F 3 "~" H 7400 5950 50  0001 C CNN
	1    7400 5950
	-1   0    0    1   
$EndComp
$Comp
L Device:R_Small R?
U 1 1 63524F33
P 7050 5950
AR Path="/634DC0EA/63524F33" Ref="R?"  Part="1" 
AR Path="/63524F33" Ref="R2"  Part="1" 
F 0 "R2" H 7109 5996 50  0000 L CNN
F 1 "47k" H 7109 5905 50  0000 L CNN
F 2 "Resistor_SMD:R_0603_1608Metric" H 7050 5950 50  0001 C CNN
F 3 "~" H 7050 5950 50  0001 C CNN
	1    7050 5950
	1    0    0    -1  
$EndComp
$Comp
L power:GND #PWR?
U 1 1 63524F39
P 7400 5850
AR Path="/634DC0EA/63524F39" Ref="#PWR?"  Part="1" 
AR Path="/63524F39" Ref="#PWR0129"  Part="1" 
F 0 "#PWR0129" H 7400 5600 50  0001 C CNN
F 1 "GND" H 7405 5677 50  0000 C CNN
F 2 "" H 7400 5850 50  0001 C CNN
F 3 "" H 7400 5850 50  0001 C CNN
	1    7400 5850
	-1   0    0    1   
$EndComp
$Comp
L power:+3.3V #PWR?
U 1 1 63524F3F
P 7050 5850
AR Path="/634DC0EA/63524F3F" Ref="#PWR?"  Part="1" 
AR Path="/63524F3F" Ref="#PWR0130"  Part="1" 
F 0 "#PWR0130" H 7050 5700 50  0001 C CNN
F 1 "+3.3V" H 7065 6023 50  0000 C CNN
F 2 "" H 7050 5850 50  0001 C CNN
F 3 "" H 7050 5850 50  0001 C CNN
	1    7050 5850
	1    0    0    -1  
$EndComp
Wire Wire Line
	7050 6050 7050 6150
Connection ~ 7050 6150
Wire Wire Line
	7050 6150 7400 6150
Wire Wire Line
	7400 6050 7400 6150
Wire Wire Line
	7550 6150 7400 6150
Connection ~ 7400 6150
$Comp
L power:GND #PWR?
U 1 1 63524F4B
P 6550 6150
AR Path="/634DC0EA/63524F4B" Ref="#PWR?"  Part="1" 
AR Path="/63524F4B" Ref="#PWR0131"  Part="1" 
F 0 "#PWR0131" H 6550 5900 50  0001 C CNN
F 1 "GND" V 6555 6022 50  0000 R CNN
F 2 "" H 6550 6150 50  0001 C CNN
F 3 "" H 6550 6150 50  0001 C CNN
	1    6550 6150
	0    1    1    0   
$EndComp
$Comp
L Switch:SW_Push SW?
U 1 1 63524F51
P 6750 6150
AR Path="/634DC0EA/63524F51" Ref="SW?"  Part="1" 
AR Path="/63524F51" Ref="SW11"  Part="1" 
F 0 "SW11" H 6750 6435 50  0000 C CNN
F 1 "SW_PAUSE" H 6750 6344 50  0000 C CNN
F 2 "Button_Switch_THT:SW_PUSH_6mm_H4.3mm" H 6750 6350 50  0001 C CNN
F 3 "~" H 6750 6350 50  0001 C CNN
	1    6750 6150
	1    0    0    -1  
$EndComp
Text Label 7550 6150 0    50   ~ 0
BP_Pause
$Comp
L Connector_Generic:Conn_01x02 J10
U 1 1 63559772
P 7850 3200
F 0 "J10" H 7930 3192 50  0000 L CNN
F 1 "SWITCH_POWER_Alt" H 7930 3101 50  0000 L CNN
F 2 "bier_lib:Switch_Power" H 7850 3200 50  0001 C CNN
F 3 "~" H 7850 3200 50  0001 C CNN
	1    7850 3200
	1    0    0    -1  
$EndComp
Text Label 7250 3200 0    50   ~ 0
PHASE_IN
Wire Wire Line
	7250 3200 7650 3200
Text Label 7250 3300 0    50   ~ 0
PHASE
Wire Wire Line
	7650 3300 7250 3300
Wire Wire Line
	9900 5550 10400 5550
Wire Wire Line
	10400 5850 9900 5850
Text Label 10050 5550 0    50   ~ 0
OUT1+
Text Label 10050 5650 0    50   ~ 0
OUT1-
Text Label 10050 5750 0    50   ~ 0
OUT2+
Text Label 10050 5850 0    50   ~ 0
OUT2-
NoConn ~ 5700 1750
NoConn ~ 5700 1850
Text Label 9950 4700 0    50   ~ 0
PUMP3_Vdd
Wire Wire Line
	10400 4700 9950 4700
Text Label 9950 4800 0    50   ~ 0
PUMP3_Vcc
Wire Wire Line
	9900 4800 10400 4800
Wire Wire Line
	9900 4900 10400 4900
Text Label 9950 5000 0    50   ~ 0
PUMP3_Vdd
Wire Wire Line
	10400 5000 9950 5000
Wire Wire Line
	3400 5400 3700 5400
Text Label 2900 4450 0    50   ~ 0
BP_Pause
Wire Wire Line
	2900 4450 4400 4450
Wire Wire Line
	2750 3250 4400 3250
Wire Wire Line
	2750 3350 4400 3350
Wire Wire Line
	2750 3450 4400 3450
$Comp
L Connector_Generic:Conn_01x09 J1
U 1 1 63624FF5
P 2550 3350
F 0 "J1" H 2468 3967 50  0000 C CNN
F 1 "Conn_01x09" H 2468 3876 50  0000 C CNN
F 2 "Connector_JST:JST_PH_B9B-PH-K_1x09_P2.00mm_Vertical" H 2550 3350 50  0001 C CNN
F 3 "~" H 2550 3350 50  0001 C CNN
	1    2550 3350
	-1   0    0    -1  
$EndComp
Text Label 2900 3550 0    50   ~ 0
SW_P3
Text Label 2900 3450 0    50   ~ 0
SW_P2
Text Label 2900 3350 0    50   ~ 0
SW_P1
Text Label 2900 3250 0    50   ~ 0
SW_H2
Text Label 2900 3150 0    50   ~ 0
SW_H1
Text Label 2900 3050 0    50   ~ 0
SW_Mode
Wire Wire Line
	2750 2950 3100 2950
Wire Wire Line
	2750 3650 4400 3650
Wire Wire Line
	4400 3550 2750 3550
Wire Wire Line
	3100 2750 3550 2750
Wire Wire Line
	3100 2750 3100 2950
Connection ~ 3100 2750
Wire Wire Line
	2750 3050 2900 3050
Wire Wire Line
	2750 3150 4400 3150
NoConn ~ 4400 3850
$EndSCHEMATC
