EESchema Schematic File Version 4
EELAYER 30 0
EELAYER END
$Descr A4 11693 8268
encoding utf-8
Sheet 4 5
Title ""
Date ""
Rev ""
Comp ""
Comment1 ""
Comment2 ""
Comment3 ""
Comment4 ""
$EndDescr
$Comp
L Device:R_Small R51
U 1 1 6355FF17
P 2950 2150
F 0 "R51" H 3009 2196 50  0000 L CNN
F 1 "10k" H 3009 2105 50  0000 L CNN
F 2 "Resistor_SMD:R_0603_1608Metric" H 2950 2150 50  0001 C CNN
F 3 "~" H 2950 2150 50  0001 C CNN
	1    2950 2150
	1    0    0    -1  
$EndComp
$Comp
L Device:C_Small C20
U 1 1 6356006C
P 2550 2150
F 0 "C20" H 2642 2196 50  0000 L CNN
F 1 "2.2u" H 2642 2105 50  0000 L CNN
F 2 "Capacitor_SMD:C_0603_1608Metric" H 2550 2150 50  0001 C CNN
F 3 "~" H 2550 2150 50  0001 C CNN
	1    2550 2150
	1    0    0    -1  
$EndComp
Wire Wire Line
	2550 2050 2550 1950
Wire Wire Line
	2550 1950 2950 1950
Wire Wire Line
	2950 1950 2950 2050
Connection ~ 2950 1950
$Comp
L power:GND #PWR077
U 1 1 63560B0F
P 2950 2350
F 0 "#PWR077" H 2950 2100 50  0001 C CNN
F 1 "GND" H 2955 2177 50  0000 C CNN
F 2 "" H 2950 2350 50  0001 C CNN
F 3 "" H 2950 2350 50  0001 C CNN
	1    2950 2350
	1    0    0    -1  
$EndComp
Wire Wire Line
	2550 2250 2550 2350
Wire Wire Line
	2550 2350 2950 2350
Wire Wire Line
	2950 2250 2950 2350
Connection ~ 2950 2350
$Comp
L power:+3.3V #PWR076
U 1 1 63561281
P 2950 1450
F 0 "#PWR076" H 2950 1300 50  0001 C CNN
F 1 "+3.3V" H 2965 1623 50  0000 C CNN
F 2 "" H 2950 1450 50  0001 C CNN
F 3 "" H 2950 1450 50  0001 C CNN
	1    2950 1450
	1    0    0    -1  
$EndComp
$Comp
L Connector_Generic:Conn_01x02 J14
U 1 1 63562055
P 3150 1600
F 0 "J14" H 3230 1592 50  0000 L CNN
F 1 "TEMP1" H 3230 1501 50  0000 L CNN
F 2 "Connector_JST:JST_PH_B2B-PH-K_1x02_P2.00mm_Vertical" H 3150 1600 50  0001 C CNN
F 3 "~" H 3150 1600 50  0001 C CNN
	1    3150 1600
	1    0    0    -1  
$EndComp
Wire Wire Line
	2950 1700 2950 1950
Wire Wire Line
	2950 1450 2950 1600
$Comp
L Device:R_Small R52
U 1 1 63563A96
P 4200 2150
F 0 "R52" H 4259 2196 50  0000 L CNN
F 1 "10k" H 4259 2105 50  0000 L CNN
F 2 "Resistor_SMD:R_0603_1608Metric" H 4200 2150 50  0001 C CNN
F 3 "~" H 4200 2150 50  0001 C CNN
	1    4200 2150
	1    0    0    -1  
$EndComp
$Comp
L Device:C_Small C21
U 1 1 63563A9C
P 3800 2150
F 0 "C21" H 3892 2196 50  0000 L CNN
F 1 "2.2u" H 3892 2105 50  0000 L CNN
F 2 "Capacitor_SMD:C_0603_1608Metric" H 3800 2150 50  0001 C CNN
F 3 "~" H 3800 2150 50  0001 C CNN
	1    3800 2150
	1    0    0    -1  
$EndComp
Wire Wire Line
	3800 2050 3800 1950
Wire Wire Line
	3800 1950 4200 1950
Wire Wire Line
	4200 1950 4200 2050
Connection ~ 4200 1950
$Comp
L power:GND #PWR079
U 1 1 63563AA6
P 4200 2350
F 0 "#PWR079" H 4200 2100 50  0001 C CNN
F 1 "GND" H 4205 2177 50  0000 C CNN
F 2 "" H 4200 2350 50  0001 C CNN
F 3 "" H 4200 2350 50  0001 C CNN
	1    4200 2350
	1    0    0    -1  
$EndComp
Wire Wire Line
	3800 2250 3800 2350
Wire Wire Line
	3800 2350 4200 2350
Wire Wire Line
	4200 2250 4200 2350
Connection ~ 4200 2350
$Comp
L power:+3.3V #PWR078
U 1 1 63563AB0
P 4200 1450
F 0 "#PWR078" H 4200 1300 50  0001 C CNN
F 1 "+3.3V" H 4215 1623 50  0000 C CNN
F 2 "" H 4200 1450 50  0001 C CNN
F 3 "" H 4200 1450 50  0001 C CNN
	1    4200 1450
	1    0    0    -1  
$EndComp
$Comp
L Connector_Generic:Conn_01x02 J15
U 1 1 63563AB6
P 4400 1600
F 0 "J15" H 4480 1592 50  0000 L CNN
F 1 "TEMP2" H 4480 1501 50  0000 L CNN
F 2 "Connector_JST:JST_PH_B2B-PH-K_1x02_P2.00mm_Vertical" H 4400 1600 50  0001 C CNN
F 3 "~" H 4400 1600 50  0001 C CNN
	1    4400 1600
	1    0    0    -1  
$EndComp
Wire Wire Line
	4200 1700 4200 1950
Wire Wire Line
	4200 1450 4200 1600
Text HLabel 2800 1700 0    50   Output ~ 0
TEMP1
Wire Wire Line
	2800 1700 2950 1700
Connection ~ 2950 1700
Text HLabel 4050 1700 0    50   Output ~ 0
TEMP2
Wire Wire Line
	4200 1700 4050 1700
Connection ~ 4200 1700
$Comp
L power:+3.3V #PWR074
U 1 1 6356BEA7
P 1950 1000
F 0 "#PWR074" H 1950 850 50  0001 C CNN
F 1 "+3.3V" H 1965 1173 50  0000 C CNN
F 2 "" H 1950 1000 50  0001 C CNN
F 3 "" H 1950 1000 50  0001 C CNN
	1    1950 1000
	1    0    0    -1  
$EndComp
$Comp
L power:GND #PWR075
U 1 1 6356C30D
P 1950 1300
F 0 "#PWR075" H 1950 1050 50  0001 C CNN
F 1 "GND" H 1955 1127 50  0000 C CNN
F 2 "" H 1950 1300 50  0001 C CNN
F 3 "" H 1950 1300 50  0001 C CNN
	1    1950 1300
	1    0    0    -1  
$EndComp
$Comp
L Device:C_Small C19
U 1 1 6356CAA6
P 1950 1150
F 0 "C19" H 2042 1196 50  0000 L CNN
F 1 "10u" H 2042 1105 50  0000 L CNN
F 2 "Capacitor_SMD:C_0603_1608Metric" H 1950 1150 50  0001 C CNN
F 3 "~" H 1950 1150 50  0001 C CNN
	1    1950 1150
	1    0    0    -1  
$EndComp
Wire Wire Line
	1950 1000 1950 1050
Wire Wire Line
	1950 1250 1950 1300
$EndSCHEMATC
