EESchema Schematic File Version 4
EELAYER 30 0
EELAYER END
$Descr A4 11693 8268
encoding utf-8
Sheet 5 5
Title ""
Date ""
Rev ""
Comp ""
Comment1 ""
Comment2 ""
Comment3 ""
Comment4 ""
$EndDescr
$Comp
L biere_lib:JQC-3FB-S U3
U 1 1 634DF535
P 3050 1850
F 0 "U3" H 3100 1865 50  0000 C CNN
F 1 "JQC-3FB-S" H 3100 1774 50  0000 C CNN
F 2 "bier_lib:JQC-3FB-S" H 3050 1850 50  0001 C CNN
F 3 "" H 3050 1850 50  0001 C CNN
F 4 "C2856210" H 3050 1850 50  0001 C CNN "LCSC"
	1    3050 1850
	1    0    0    -1  
$EndComp
Text HLabel 1250 2550 0    50   Input ~ 0
IN_Heater1
$Comp
L Device:R_Small R21
U 1 1 634E1D5E
P 2350 1950
F 0 "R21" H 2409 1996 50  0000 L CNN
F 1 "39 3W" H 2409 1905 50  0000 L CNN
F 2 "bier_lib:Resistor_2030" H 2350 1950 50  0001 C CNN
F 3 "~" H 2350 1950 50  0001 C CNN
F 4 "C175617" H 2350 1950 50  0001 C CNN "LCSC"
	1    2350 1950
	1    0    0    -1  
$EndComp
Wire Wire Line
	1900 2250 1900 2300
$Comp
L power:+12V #PWR048
U 1 1 634E246B
P 2050 1800
F 0 "#PWR048" H 2050 1650 50  0001 C CNN
F 1 "+12V" H 2065 1973 50  0000 C CNN
F 2 "" H 2050 1800 50  0001 C CNN
F 3 "" H 2050 1800 50  0001 C CNN
	1    2050 1800
	1    0    0    -1  
$EndComp
Connection ~ 1900 2300
Wire Wire Line
	1900 2300 1900 2350
$Comp
L Device:R_Small R17
U 1 1 634E48A2
P 1400 2550
F 0 "R17" V 1204 2550 50  0000 C CNN
F 1 "330" V 1295 2550 50  0000 C CNN
F 2 "Resistor_SMD:R_0603_1608Metric" H 1400 2550 50  0001 C CNN
F 3 "~" H 1400 2550 50  0001 C CNN
	1    1400 2550
	0    1    1    0   
$EndComp
Wire Wire Line
	1500 2550 1600 2550
Wire Wire Line
	1300 2550 1250 2550
$Comp
L power:GND #PWR044
U 1 1 634E5661
P 1900 2800
F 0 "#PWR044" H 1900 2550 50  0001 C CNN
F 1 "GND" H 1905 2627 50  0000 C CNN
F 2 "" H 1900 2800 50  0001 C CNN
F 3 "" H 1900 2800 50  0001 C CNN
	1    1900 2800
	1    0    0    -1  
$EndComp
Wire Wire Line
	1900 2750 1900 2800
Text HLabel 3650 2300 2    50   Output ~ 0
HEATER1
Text HLabel 1150 4150 0    50   Input ~ 0
IN_Heater2
Text HLabel 3550 3900 2    50   Output ~ 0
HEATER2
$Comp
L power:+12V #PWR036
U 1 1 634EF5BE
P 1100 1000
F 0 "#PWR036" H 1100 850 50  0001 C CNN
F 1 "+12V" H 1115 1173 50  0000 C CNN
F 2 "" H 1100 1000 50  0001 C CNN
F 3 "" H 1100 1000 50  0001 C CNN
	1    1100 1000
	1    0    0    -1  
$EndComp
$Comp
L Device:C_Small C?
U 1 1 634F0BE1
P 1100 1100
AR Path="/634B435D/634F0BE1" Ref="C?"  Part="1" 
AR Path="/634DC0EA/634F0BE1" Ref="C10"  Part="1" 
F 0 "C10" H 1192 1146 50  0000 L CNN
F 1 "10u 25v" H 1192 1055 50  0000 L CNN
F 2 "Capacitor_SMD:C_0603_1608Metric" H 1100 1100 50  0001 C CNN
F 3 "~" H 1100 1100 50  0001 C CNN
F 4 "C15850" H 1100 1100 50  0001 C CNN "LCSC"
	1    1100 1100
	1    0    0    -1  
$EndComp
$Comp
L power:GND #PWR?
U 1 1 634F0BE7
P 1100 1200
AR Path="/634B435D/634F0BE7" Ref="#PWR?"  Part="1" 
AR Path="/634DC0EA/634F0BE7" Ref="#PWR037"  Part="1" 
F 0 "#PWR037" H 1100 950 50  0001 C CNN
F 1 "GND" H 1105 1027 50  0000 C CNN
F 2 "" H 1100 1200 50  0001 C CNN
F 3 "" H 1100 1200 50  0001 C CNN
	1    1100 1200
	1    0    0    -1  
$EndComp
$Comp
L Device:C_Small C?
U 1 1 634F0BED
P 1450 1100
AR Path="/634B435D/634F0BED" Ref="C?"  Part="1" 
AR Path="/634DC0EA/634F0BED" Ref="C11"  Part="1" 
F 0 "C11" H 1542 1146 50  0000 L CNN
F 1 "10u 25v" H 1542 1055 50  0000 L CNN
F 2 "Capacitor_SMD:C_0603_1608Metric" H 1450 1100 50  0001 C CNN
F 3 "~" H 1450 1100 50  0001 C CNN
F 4 "C15850" H 1450 1100 50  0001 C CNN "LCSC"
	1    1450 1100
	1    0    0    -1  
$EndComp
$Comp
L power:GND #PWR?
U 1 1 634F0BF3
P 1450 1200
AR Path="/634B435D/634F0BF3" Ref="#PWR?"  Part="1" 
AR Path="/634DC0EA/634F0BF3" Ref="#PWR039"  Part="1" 
F 0 "#PWR039" H 1450 950 50  0001 C CNN
F 1 "GND" H 1455 1027 50  0000 C CNN
F 2 "" H 1450 1200 50  0001 C CNN
F 3 "" H 1450 1200 50  0001 C CNN
	1    1450 1200
	1    0    0    -1  
$EndComp
$Comp
L power:+12V #PWR038
U 1 1 634F1124
P 1450 1000
F 0 "#PWR038" H 1450 850 50  0001 C CNN
F 1 "+12V" H 1465 1173 50  0000 C CNN
F 2 "" H 1450 1000 50  0001 C CNN
F 3 "" H 1450 1000 50  0001 C CNN
	1    1450 1000
	1    0    0    -1  
$EndComp
Text HLabel 9200 4700 0    50   Input ~ 0
IN_OUT2
$Comp
L Device:R_Small R40
U 1 1 6357914E
P 9450 4700
F 0 "R40" V 9254 4700 50  0000 C CNN
F 1 "22" V 9345 4700 50  0000 C CNN
F 2 "Resistor_SMD:R_0603_1608Metric" H 9450 4700 50  0001 C CNN
F 3 "~" H 9450 4700 50  0001 C CNN
	1    9450 4700
	0    1    1    0   
$EndComp
Wire Wire Line
	9550 4700 9650 4700
$Comp
L power:GND #PWR069
U 1 1 63579156
P 9950 4950
F 0 "#PWR069" H 9950 4700 50  0001 C CNN
F 1 "GND" H 9955 4777 50  0000 C CNN
F 2 "" H 9950 4950 50  0001 C CNN
F 3 "" H 9950 4950 50  0001 C CNN
	1    9950 4950
	1    0    0    -1  
$EndComp
Wire Wire Line
	9950 4900 9950 4950
Text HLabel 1150 5700 0    50   Input ~ 0
IN_Pump1
Text HLabel 3550 5450 2    50   Output ~ 0
PUMP1
Text HLabel 1150 7200 0    50   Input ~ 0
IN_Pump2
Text HLabel 3550 6950 2    50   Output ~ 0
PUMP2
Text HLabel 4550 1550 0    50   Input ~ 0
IN_Pump3
Text HLabel 6950 1300 2    50   Output ~ 0
PUMP3_OUT
Text HLabel 3300 800  0    50   Input ~ 0
PHASE
$Comp
L power:+12V #PWR068
U 1 1 6390C053
P 9950 3500
F 0 "#PWR068" H 9950 3350 50  0001 C CNN
F 1 "+12V" H 9965 3673 50  0000 C CNN
F 2 "" H 9950 3500 50  0001 C CNN
F 3 "" H 9950 3500 50  0001 C CNN
	1    9950 3500
	1    0    0    -1  
$EndComp
Wire Wire Line
	9950 3500 9950 3550
Connection ~ 9950 4100
$Comp
L Device:R_Small R48
U 1 1 6390C05E
P 9950 3650
F 0 "R48" H 10009 3696 50  0000 L CNN
F 1 "1 1W" H 10009 3605 50  0000 L CNN
F 2 "Resistor_SMD:R_1218_3246Metric" H 9950 3650 50  0001 C CNN
F 3 "~" H 9950 3650 50  0001 C CNN
F 4 "C175540" H 9950 3650 50  0001 C CNN "LCSC"
	1    9950 3650
	1    0    0    -1  
$EndComp
Wire Wire Line
	9950 4100 9950 4500
Wire Wire Line
	9200 4700 9350 4700
$Comp
L Device:LED_Small D9
U 1 1 63AFDEF3
P 1800 3750
F 0 "D9" V 1846 3680 50  0000 R CNN
F 1 "LED_H2" V 1755 3680 50  0000 R CNN
F 2 "LED_SMD:LED_0603_1608Metric" V 1800 3750 50  0001 C CNN
F 3 "~" V 1800 3750 50  0001 C CNN
F 4 "C2286" H 1800 3750 50  0001 C CNN "LCSC"
	1    1800 3750
	0    -1   -1   0   
$EndComp
$Comp
L Device:R_Small R?
U 1 1 63B20B5C
P 1900 1950
AR Path="/63B20B5C" Ref="R?"  Part="1" 
AR Path="/634DC0EA/63B20B5C" Ref="R25"  Part="1" 
F 0 "R25" H 1959 1996 50  0000 L CNN
F 1 "1k8" H 1959 1905 50  0000 L CNN
F 2 "Resistor_SMD:R_0603_1608Metric" H 1900 1950 50  0001 C CNN
F 3 "~" H 1900 1950 50  0001 C CNN
	1    1900 1950
	-1   0    0    1   
$EndComp
$Comp
L Device:LED_Small D7
U 1 1 63B20B62
P 1900 2150
F 0 "D7" V 1946 2080 50  0000 R CNN
F 1 "LED_H1" V 1855 2080 50  0000 R CNN
F 2 "LED_SMD:LED_0603_1608Metric" V 1900 2150 50  0001 C CNN
F 3 "~" V 1900 2150 50  0001 C CNN
F 4 "C2286" H 1900 2150 50  0001 C CNN "LCSC"
	1    1900 2150
	0    -1   -1   0   
$EndComp
Wire Wire Line
	2350 1800 2350 1850
$Comp
L Device:LED_Small D8
U 1 1 63B2F69F
P 1800 5300
F 0 "D8" V 1846 5230 50  0000 R CNN
F 1 "LED_P1" V 1755 5230 50  0000 R CNN
F 2 "LED_SMD:LED_0603_1608Metric" V 1800 5300 50  0001 C CNN
F 3 "~" V 1800 5300 50  0001 C CNN
F 4 "C2286" H 1800 5300 50  0001 C CNN "LCSC"
	1    1800 5300
	0    -1   -1   0   
$EndComp
$Comp
L Device:LED_Small D10
U 1 1 63B33358
P 1800 6800
F 0 "D10" V 1846 6730 50  0000 R CNN
F 1 "LED_P2" V 1755 6730 50  0000 R CNN
F 2 "LED_SMD:LED_0603_1608Metric" V 1800 6800 50  0001 C CNN
F 3 "~" V 1800 6800 50  0001 C CNN
F 4 "C2286" H 1800 6800 50  0001 C CNN "LCSC"
	1    1800 6800
	0    -1   -1   0   
$EndComp
Connection ~ 2050 1800
Wire Wire Line
	2050 1800 1900 1800
$Comp
L Device:LED_Small D11
U 1 1 63B6182E
P 5200 1150
F 0 "D11" V 5246 1080 50  0000 R CNN
F 1 "LED_P3" V 5155 1080 50  0000 R CNN
F 2 "LED_SMD:LED_0603_1608Metric" V 5200 1150 50  0001 C CNN
F 3 "~" V 5200 1150 50  0001 C CNN
F 4 "C2286" H 5200 1150 50  0001 C CNN "LCSC"
	1    5200 1150
	0    -1   -1   0   
$EndComp
$Comp
L Device:R_Small R?
U 1 1 63B9135C
P 10700 3650
AR Path="/63B9135C" Ref="R?"  Part="1" 
AR Path="/634DC0EA/63B9135C" Ref="R50"  Part="1" 
F 0 "R50" H 10759 3696 50  0000 L CNN
F 1 "1k8" H 10759 3605 50  0000 L CNN
F 2 "Resistor_SMD:R_0603_1608Metric" H 10700 3650 50  0001 C CNN
F 3 "~" H 10700 3650 50  0001 C CNN
	1    10700 3650
	-1   0    0    1   
$EndComp
$Comp
L Device:LED_Small D14
U 1 1 63B91362
P 10700 3850
F 0 "D14" V 10746 3780 50  0000 R CNN
F 1 "LED_O2" V 10655 3780 50  0000 R CNN
F 2 "LED_SMD:LED_0603_1608Metric" V 10700 3850 50  0001 C CNN
F 3 "~" V 10700 3850 50  0001 C CNN
F 4 "C2286" H 10700 3850 50  0001 C CNN "LCSC"
	1    10700 3850
	0    -1   -1   0   
$EndComp
Wire Wire Line
	10700 3950 10700 4100
Connection ~ 9950 3500
$Comp
L Device:LED_Small D13
U 1 1 63BA223B
P 10700 1450
F 0 "D13" V 10746 1380 50  0000 R CNN
F 1 "LED_O1" V 10655 1380 50  0000 R CNN
F 2 "LED_SMD:LED_0603_1608Metric" V 10700 1450 50  0001 C CNN
F 3 "~" V 10700 1450 50  0001 C CNN
F 4 "C2286" H 10700 1450 50  0001 C CNN "LCSC"
	1    10700 1450
	0    -1   -1   0   
$EndComp
$Comp
L power:+12V #PWR040
U 1 1 63BB0709
P 1800 1000
F 0 "#PWR040" H 1800 850 50  0001 C CNN
F 1 "+12V" H 1815 1173 50  0000 C CNN
F 2 "" H 1800 1000 50  0001 C CNN
F 3 "" H 1800 1000 50  0001 C CNN
	1    1800 1000
	1    0    0    -1  
$EndComp
$Comp
L Device:C_Small C?
U 1 1 63BB070F
P 1800 1100
AR Path="/634B435D/63BB070F" Ref="C?"  Part="1" 
AR Path="/634DC0EA/63BB070F" Ref="C12"  Part="1" 
F 0 "C12" H 1892 1146 50  0000 L CNN
F 1 "10u 25v" H 1892 1055 50  0000 L CNN
F 2 "Capacitor_SMD:C_0603_1608Metric" H 1800 1100 50  0001 C CNN
F 3 "~" H 1800 1100 50  0001 C CNN
F 4 "C15850" H 1800 1100 50  0001 C CNN "LCSC"
	1    1800 1100
	1    0    0    -1  
$EndComp
$Comp
L power:GND #PWR?
U 1 1 63BB0715
P 1800 1200
AR Path="/634B435D/63BB0715" Ref="#PWR?"  Part="1" 
AR Path="/634DC0EA/63BB0715" Ref="#PWR041"  Part="1" 
F 0 "#PWR041" H 1800 950 50  0001 C CNN
F 1 "GND" H 1805 1027 50  0000 C CNN
F 2 "" H 1800 1200 50  0001 C CNN
F 3 "" H 1800 1200 50  0001 C CNN
	1    1800 1200
	1    0    0    -1  
$EndComp
$Comp
L Device:C_Small C?
U 1 1 63BB071B
P 2150 1100
AR Path="/634B435D/63BB071B" Ref="C?"  Part="1" 
AR Path="/634DC0EA/63BB071B" Ref="C13"  Part="1" 
F 0 "C13" H 2242 1146 50  0000 L CNN
F 1 "10u 25v" H 2242 1055 50  0000 L CNN
F 2 "Capacitor_SMD:C_0603_1608Metric" H 2150 1100 50  0001 C CNN
F 3 "~" H 2150 1100 50  0001 C CNN
F 4 "C15850" H 2150 1100 50  0001 C CNN "LCSC"
	1    2150 1100
	1    0    0    -1  
$EndComp
$Comp
L power:GND #PWR?
U 1 1 63BB0721
P 2150 1200
AR Path="/634B435D/63BB0721" Ref="#PWR?"  Part="1" 
AR Path="/634DC0EA/63BB0721" Ref="#PWR043"  Part="1" 
F 0 "#PWR043" H 2150 950 50  0001 C CNN
F 1 "GND" H 2155 1027 50  0000 C CNN
F 2 "" H 2150 1200 50  0001 C CNN
F 3 "" H 2150 1200 50  0001 C CNN
	1    2150 1200
	1    0    0    -1  
$EndComp
$Comp
L power:+12V #PWR042
U 1 1 63BB0727
P 2150 1000
F 0 "#PWR042" H 2150 850 50  0001 C CNN
F 1 "+12V" H 2165 1173 50  0000 C CNN
F 2 "" H 2150 1000 50  0001 C CNN
F 3 "" H 2150 1000 50  0001 C CNN
	1    2150 1000
	1    0    0    -1  
$EndComp
Text Label 3700 800  2    50   ~ 0
PHASE
Wire Wire Line
	3700 800  3300 800 
Text Label 4050 2150 2    50   ~ 0
PHASE
Wire Wire Line
	4050 2150 3650 2150
$Comp
L Switch:SW_Push SW2
U 1 1 63F3D86E
P 5450 4300
F 0 "SW2" H 5450 4585 50  0000 C CNN
F 1 "SW_H1" H 5450 4494 50  0000 C CNN
F 2 "Button_Switch_THT:SW_PUSH_6mm_H4.3mm" H 5450 4500 50  0001 C CNN
F 3 "~" H 5450 4500 50  0001 C CNN
	1    5450 4300
	1    0    0    -1  
$EndComp
Text HLabel 6250 4300 2    50   Output ~ 0
SW_H1
$Comp
L power:GND #PWR0105
U 1 1 63F5AAD5
P 5250 4300
F 0 "#PWR0105" H 5250 4050 50  0001 C CNN
F 1 "GND" V 5255 4172 50  0000 R CNN
F 2 "" H 5250 4300 50  0001 C CNN
F 3 "" H 5250 4300 50  0001 C CNN
	1    5250 4300
	0    1    1    0   
$EndComp
Wire Wire Line
	5650 4300 5750 4300
$Comp
L Device:C_Small C24
U 1 1 63F69DA2
P 6100 4100
F 0 "C24" H 6008 4054 50  0000 R CNN
F 1 "10n" H 6008 4145 50  0000 R CNN
F 2 "Capacitor_SMD:C_0603_1608Metric" H 6100 4100 50  0001 C CNN
F 3 "~" H 6100 4100 50  0001 C CNN
	1    6100 4100
	-1   0    0    1   
$EndComp
$Comp
L Device:R_Small R54
U 1 1 63F6B418
P 5750 4100
F 0 "R54" H 5809 4146 50  0000 L CNN
F 1 "47k" H 5809 4055 50  0000 L CNN
F 2 "Resistor_SMD:R_0603_1608Metric" H 5750 4100 50  0001 C CNN
F 3 "~" H 5750 4100 50  0001 C CNN
	1    5750 4100
	1    0    0    -1  
$EndComp
$Comp
L power:GND #PWR0106
U 1 1 63F6C200
P 6100 4000
F 0 "#PWR0106" H 6100 3750 50  0001 C CNN
F 1 "GND" H 6105 3827 50  0000 C CNN
F 2 "" H 6100 4000 50  0001 C CNN
F 3 "" H 6100 4000 50  0001 C CNN
	1    6100 4000
	-1   0    0    1   
$EndComp
$Comp
L power:+3.3V #PWR0107
U 1 1 63F6C63A
P 5750 4000
F 0 "#PWR0107" H 5750 3850 50  0001 C CNN
F 1 "+3.3V" H 5765 4173 50  0000 C CNN
F 2 "" H 5750 4000 50  0001 C CNN
F 3 "" H 5750 4000 50  0001 C CNN
	1    5750 4000
	1    0    0    -1  
$EndComp
Wire Wire Line
	5750 4200 5750 4300
Connection ~ 5750 4300
Wire Wire Line
	5750 4300 6100 4300
Wire Wire Line
	6100 4200 6100 4300
Wire Wire Line
	6250 4300 6100 4300
Connection ~ 6100 4300
$Comp
L Switch:SW_Push SW3
U 1 1 63FAB34F
P 5450 4900
F 0 "SW3" H 5450 5185 50  0000 C CNN
F 1 "SW_H2" H 5450 5094 50  0000 C CNN
F 2 "Button_Switch_THT:SW_PUSH_6mm_H4.3mm" H 5450 5100 50  0001 C CNN
F 3 "~" H 5450 5100 50  0001 C CNN
	1    5450 4900
	1    0    0    -1  
$EndComp
Text HLabel 6250 4900 2    50   Output ~ 0
SW_H2
$Comp
L power:GND #PWR0108
U 1 1 63FAB356
P 5250 4900
F 0 "#PWR0108" H 5250 4650 50  0001 C CNN
F 1 "GND" V 5255 4772 50  0000 R CNN
F 2 "" H 5250 4900 50  0001 C CNN
F 3 "" H 5250 4900 50  0001 C CNN
	1    5250 4900
	0    1    1    0   
$EndComp
Wire Wire Line
	5650 4900 5750 4900
$Comp
L Device:C_Small C25
U 1 1 63FAB35D
P 6100 4700
F 0 "C25" H 6008 4654 50  0000 R CNN
F 1 "10n" H 6008 4745 50  0000 R CNN
F 2 "Capacitor_SMD:C_0603_1608Metric" H 6100 4700 50  0001 C CNN
F 3 "~" H 6100 4700 50  0001 C CNN
	1    6100 4700
	-1   0    0    1   
$EndComp
$Comp
L Device:R_Small R55
U 1 1 63FAB363
P 5750 4700
F 0 "R55" H 5809 4746 50  0000 L CNN
F 1 "47k" H 5809 4655 50  0000 L CNN
F 2 "Resistor_SMD:R_0603_1608Metric" H 5750 4700 50  0001 C CNN
F 3 "~" H 5750 4700 50  0001 C CNN
	1    5750 4700
	1    0    0    -1  
$EndComp
$Comp
L power:GND #PWR0109
U 1 1 63FAB369
P 6100 4600
F 0 "#PWR0109" H 6100 4350 50  0001 C CNN
F 1 "GND" H 6105 4427 50  0000 C CNN
F 2 "" H 6100 4600 50  0001 C CNN
F 3 "" H 6100 4600 50  0001 C CNN
	1    6100 4600
	-1   0    0    1   
$EndComp
$Comp
L power:+3.3V #PWR0110
U 1 1 63FAB36F
P 5750 4600
F 0 "#PWR0110" H 5750 4450 50  0001 C CNN
F 1 "+3.3V" H 5765 4773 50  0000 C CNN
F 2 "" H 5750 4600 50  0001 C CNN
F 3 "" H 5750 4600 50  0001 C CNN
	1    5750 4600
	1    0    0    -1  
$EndComp
Wire Wire Line
	5750 4800 5750 4900
Connection ~ 5750 4900
Wire Wire Line
	5750 4900 6100 4900
Wire Wire Line
	6100 4800 6100 4900
Wire Wire Line
	6250 4900 6100 4900
Connection ~ 6100 4900
$Comp
L Switch:SW_Push SW4
U 1 1 63FB5EB8
P 5450 5500
F 0 "SW4" H 5450 5785 50  0000 C CNN
F 1 "SW_P1" H 5450 5694 50  0000 C CNN
F 2 "Button_Switch_THT:SW_PUSH_6mm_H4.3mm" H 5450 5700 50  0001 C CNN
F 3 "~" H 5450 5700 50  0001 C CNN
	1    5450 5500
	1    0    0    -1  
$EndComp
Text HLabel 6250 5500 2    50   Output ~ 0
SW_P1
$Comp
L power:GND #PWR0111
U 1 1 63FB5EBF
P 5250 5500
F 0 "#PWR0111" H 5250 5250 50  0001 C CNN
F 1 "GND" V 5255 5372 50  0000 R CNN
F 2 "" H 5250 5500 50  0001 C CNN
F 3 "" H 5250 5500 50  0001 C CNN
	1    5250 5500
	0    1    1    0   
$EndComp
Wire Wire Line
	5650 5500 5750 5500
$Comp
L Device:C_Small C26
U 1 1 63FB5EC6
P 6100 5300
F 0 "C26" H 6008 5254 50  0000 R CNN
F 1 "10n" H 6008 5345 50  0000 R CNN
F 2 "Capacitor_SMD:C_0603_1608Metric" H 6100 5300 50  0001 C CNN
F 3 "~" H 6100 5300 50  0001 C CNN
	1    6100 5300
	-1   0    0    1   
$EndComp
$Comp
L Device:R_Small R56
U 1 1 63FB5ECC
P 5750 5300
F 0 "R56" H 5809 5346 50  0000 L CNN
F 1 "47k" H 5809 5255 50  0000 L CNN
F 2 "Resistor_SMD:R_0603_1608Metric" H 5750 5300 50  0001 C CNN
F 3 "~" H 5750 5300 50  0001 C CNN
	1    5750 5300
	1    0    0    -1  
$EndComp
$Comp
L power:GND #PWR0112
U 1 1 63FB5ED2
P 6100 5200
F 0 "#PWR0112" H 6100 4950 50  0001 C CNN
F 1 "GND" H 6105 5027 50  0000 C CNN
F 2 "" H 6100 5200 50  0001 C CNN
F 3 "" H 6100 5200 50  0001 C CNN
	1    6100 5200
	-1   0    0    1   
$EndComp
$Comp
L power:+3.3V #PWR0113
U 1 1 63FB5ED8
P 5750 5200
F 0 "#PWR0113" H 5750 5050 50  0001 C CNN
F 1 "+3.3V" H 5765 5373 50  0000 C CNN
F 2 "" H 5750 5200 50  0001 C CNN
F 3 "" H 5750 5200 50  0001 C CNN
	1    5750 5200
	1    0    0    -1  
$EndComp
Wire Wire Line
	5750 5400 5750 5500
Connection ~ 5750 5500
Wire Wire Line
	5750 5500 6100 5500
Wire Wire Line
	6100 5400 6100 5500
Wire Wire Line
	6250 5500 6100 5500
Connection ~ 6100 5500
$Comp
L Switch:SW_Push SW5
U 1 1 63FC0C52
P 5450 6100
F 0 "SW5" H 5450 6385 50  0000 C CNN
F 1 "SW_P2" H 5450 6294 50  0000 C CNN
F 2 "Button_Switch_THT:SW_PUSH_6mm_H4.3mm" H 5450 6300 50  0001 C CNN
F 3 "~" H 5450 6300 50  0001 C CNN
	1    5450 6100
	1    0    0    -1  
$EndComp
Text HLabel 6250 6100 2    50   Output ~ 0
SW_P2
$Comp
L power:GND #PWR0114
U 1 1 63FC0C59
P 5250 6100
F 0 "#PWR0114" H 5250 5850 50  0001 C CNN
F 1 "GND" V 5255 5972 50  0000 R CNN
F 2 "" H 5250 6100 50  0001 C CNN
F 3 "" H 5250 6100 50  0001 C CNN
	1    5250 6100
	0    1    1    0   
$EndComp
Wire Wire Line
	5650 6100 5750 6100
$Comp
L Device:C_Small C27
U 1 1 63FC0C60
P 6100 5900
F 0 "C27" H 6008 5854 50  0000 R CNN
F 1 "10n" H 6008 5945 50  0000 R CNN
F 2 "Capacitor_SMD:C_0603_1608Metric" H 6100 5900 50  0001 C CNN
F 3 "~" H 6100 5900 50  0001 C CNN
	1    6100 5900
	-1   0    0    1   
$EndComp
$Comp
L Device:R_Small R57
U 1 1 63FC0C66
P 5750 5900
F 0 "R57" H 5809 5946 50  0000 L CNN
F 1 "47k" H 5809 5855 50  0000 L CNN
F 2 "Resistor_SMD:R_0603_1608Metric" H 5750 5900 50  0001 C CNN
F 3 "~" H 5750 5900 50  0001 C CNN
	1    5750 5900
	1    0    0    -1  
$EndComp
$Comp
L power:GND #PWR0115
U 1 1 63FC0C6C
P 6100 5800
F 0 "#PWR0115" H 6100 5550 50  0001 C CNN
F 1 "GND" H 6105 5627 50  0000 C CNN
F 2 "" H 6100 5800 50  0001 C CNN
F 3 "" H 6100 5800 50  0001 C CNN
	1    6100 5800
	-1   0    0    1   
$EndComp
$Comp
L power:+3.3V #PWR0116
U 1 1 63FC0C72
P 5750 5800
F 0 "#PWR0116" H 5750 5650 50  0001 C CNN
F 1 "+3.3V" H 5765 5973 50  0000 C CNN
F 2 "" H 5750 5800 50  0001 C CNN
F 3 "" H 5750 5800 50  0001 C CNN
	1    5750 5800
	1    0    0    -1  
$EndComp
Wire Wire Line
	5750 6000 5750 6100
Connection ~ 5750 6100
Wire Wire Line
	5750 6100 6100 6100
Wire Wire Line
	6100 6000 6100 6100
Wire Wire Line
	6250 6100 6100 6100
Connection ~ 6100 6100
$Comp
L Switch:SW_Push SW6
U 1 1 63FD9800
P 5450 6700
F 0 "SW6" H 5450 6985 50  0000 C CNN
F 1 "SW_P3" H 5450 6894 50  0000 C CNN
F 2 "Button_Switch_THT:SW_PUSH_6mm_H4.3mm" H 5450 6900 50  0001 C CNN
F 3 "~" H 5450 6900 50  0001 C CNN
	1    5450 6700
	1    0    0    -1  
$EndComp
Text HLabel 6250 6700 2    50   Output ~ 0
SW_P3
$Comp
L power:GND #PWR0117
U 1 1 63FD9807
P 5250 6700
F 0 "#PWR0117" H 5250 6450 50  0001 C CNN
F 1 "GND" V 5255 6572 50  0000 R CNN
F 2 "" H 5250 6700 50  0001 C CNN
F 3 "" H 5250 6700 50  0001 C CNN
	1    5250 6700
	0    1    1    0   
$EndComp
Wire Wire Line
	5650 6700 5750 6700
$Comp
L Device:C_Small C28
U 1 1 63FD980E
P 6100 6500
F 0 "C28" H 6008 6454 50  0000 R CNN
F 1 "10n" H 6008 6545 50  0000 R CNN
F 2 "Capacitor_SMD:C_0603_1608Metric" H 6100 6500 50  0001 C CNN
F 3 "~" H 6100 6500 50  0001 C CNN
	1    6100 6500
	-1   0    0    1   
$EndComp
$Comp
L Device:R_Small R58
U 1 1 63FD9814
P 5750 6500
F 0 "R58" H 5809 6546 50  0000 L CNN
F 1 "47k" H 5809 6455 50  0000 L CNN
F 2 "Resistor_SMD:R_0603_1608Metric" H 5750 6500 50  0001 C CNN
F 3 "~" H 5750 6500 50  0001 C CNN
	1    5750 6500
	1    0    0    -1  
$EndComp
$Comp
L power:GND #PWR0118
U 1 1 63FD981A
P 6100 6400
F 0 "#PWR0118" H 6100 6150 50  0001 C CNN
F 1 "GND" H 6105 6227 50  0000 C CNN
F 2 "" H 6100 6400 50  0001 C CNN
F 3 "" H 6100 6400 50  0001 C CNN
	1    6100 6400
	-1   0    0    1   
$EndComp
$Comp
L power:+3.3V #PWR0119
U 1 1 63FD9820
P 5750 6400
F 0 "#PWR0119" H 5750 6250 50  0001 C CNN
F 1 "+3.3V" H 5765 6573 50  0000 C CNN
F 2 "" H 5750 6400 50  0001 C CNN
F 3 "" H 5750 6400 50  0001 C CNN
	1    5750 6400
	1    0    0    -1  
$EndComp
Wire Wire Line
	5750 6600 5750 6700
Connection ~ 5750 6700
Wire Wire Line
	5750 6700 6100 6700
Wire Wire Line
	6100 6600 6100 6700
Wire Wire Line
	6250 6700 6100 6700
Connection ~ 6100 6700
Text HLabel 8400 5500 2    50   Output ~ 0
SW_O1
$Comp
L Device:C_Small C30
U 1 1 63FEE494
P 8250 5300
F 0 "C30" H 8158 5254 50  0000 R CNN
F 1 "10n" H 8158 5345 50  0000 R CNN
F 2 "Capacitor_SMD:C_0603_1608Metric" H 8250 5300 50  0001 C CNN
F 3 "~" H 8250 5300 50  0001 C CNN
	1    8250 5300
	-1   0    0    1   
$EndComp
$Comp
L Device:R_Small R60
U 1 1 63FEE49A
P 7900 5300
F 0 "R60" H 7959 5346 50  0000 L CNN
F 1 "47k" H 7959 5255 50  0000 L CNN
F 2 "Resistor_SMD:R_0603_1608Metric" H 7900 5300 50  0001 C CNN
F 3 "~" H 7900 5300 50  0001 C CNN
	1    7900 5300
	1    0    0    -1  
$EndComp
$Comp
L power:GND #PWR0123
U 1 1 63FEE4A0
P 8250 5200
F 0 "#PWR0123" H 8250 4950 50  0001 C CNN
F 1 "GND" H 8255 5027 50  0000 C CNN
F 2 "" H 8250 5200 50  0001 C CNN
F 3 "" H 8250 5200 50  0001 C CNN
	1    8250 5200
	-1   0    0    1   
$EndComp
$Comp
L power:+3.3V #PWR0124
U 1 1 63FEE4A6
P 7900 5200
F 0 "#PWR0124" H 7900 5050 50  0001 C CNN
F 1 "+3.3V" H 7915 5373 50  0000 C CNN
F 2 "" H 7900 5200 50  0001 C CNN
F 3 "" H 7900 5200 50  0001 C CNN
	1    7900 5200
	1    0    0    -1  
$EndComp
Wire Wire Line
	7900 5400 7900 5500
Wire Wire Line
	7900 5500 8250 5500
Wire Wire Line
	8250 5400 8250 5500
Wire Wire Line
	8400 5500 8250 5500
Connection ~ 8250 5500
Text HLabel 8400 6150 2    50   Output ~ 0
SW_O2
Wire Wire Line
	7800 6150 7900 6150
$Comp
L Device:C_Small C31
U 1 1 63FF8E60
P 8250 5950
F 0 "C31" H 8158 5904 50  0000 R CNN
F 1 "10n" H 8158 5995 50  0000 R CNN
F 2 "Capacitor_SMD:C_0603_1608Metric" H 8250 5950 50  0001 C CNN
F 3 "~" H 8250 5950 50  0001 C CNN
	1    8250 5950
	-1   0    0    1   
$EndComp
$Comp
L Device:R_Small R61
U 1 1 63FF8E66
P 7900 5950
F 0 "R61" H 7959 5996 50  0000 L CNN
F 1 "47k" H 7959 5905 50  0000 L CNN
F 2 "Resistor_SMD:R_0603_1608Metric" H 7900 5950 50  0001 C CNN
F 3 "~" H 7900 5950 50  0001 C CNN
	1    7900 5950
	1    0    0    -1  
$EndComp
$Comp
L power:GND #PWR0125
U 1 1 63FF8E6C
P 8250 5850
F 0 "#PWR0125" H 8250 5600 50  0001 C CNN
F 1 "GND" H 8255 5677 50  0000 C CNN
F 2 "" H 8250 5850 50  0001 C CNN
F 3 "" H 8250 5850 50  0001 C CNN
	1    8250 5850
	-1   0    0    1   
$EndComp
$Comp
L power:+3.3V #PWR0126
U 1 1 63FF8E72
P 7900 5850
F 0 "#PWR0126" H 7900 5700 50  0001 C CNN
F 1 "+3.3V" H 7915 6023 50  0000 C CNN
F 2 "" H 7900 5850 50  0001 C CNN
F 3 "" H 7900 5850 50  0001 C CNN
	1    7900 5850
	1    0    0    -1  
$EndComp
Wire Wire Line
	7900 6050 7900 6150
Connection ~ 7900 6150
Wire Wire Line
	7900 6150 8250 6150
Wire Wire Line
	8250 6050 8250 6150
Wire Wire Line
	8400 6150 8250 6150
Connection ~ 8250 6150
Connection ~ 7900 5500
Wire Wire Line
	7800 5500 7900 5500
$Comp
L power:GND #PWR0127
U 1 1 63FF8E59
P 7400 6150
F 0 "#PWR0127" H 7400 5900 50  0001 C CNN
F 1 "GND" V 7405 6022 50  0000 R CNN
F 2 "" H 7400 6150 50  0001 C CNN
F 3 "" H 7400 6150 50  0001 C CNN
	1    7400 6150
	0    1    1    0   
$EndComp
$Comp
L Switch:SW_Push SW9
U 1 1 63FF8E52
P 7600 6150
F 0 "SW9" H 7600 6435 50  0000 C CNN
F 1 "SW_O2" H 7600 6344 50  0000 C CNN
F 2 "Button_Switch_THT:SW_PUSH_6mm_H4.3mm" H 7600 6350 50  0001 C CNN
F 3 "~" H 7600 6350 50  0001 C CNN
	1    7600 6150
	1    0    0    -1  
$EndComp
$Comp
L power:GND #PWR0128
U 1 1 63FEE48D
P 7400 5500
F 0 "#PWR0128" H 7400 5250 50  0001 C CNN
F 1 "GND" V 7405 5372 50  0000 R CNN
F 2 "" H 7400 5500 50  0001 C CNN
F 3 "" H 7400 5500 50  0001 C CNN
	1    7400 5500
	0    1    1    0   
$EndComp
$Comp
L Switch:SW_Push SW8
U 1 1 63FEE486
P 7600 5500
F 0 "SW8" H 7600 5785 50  0000 C CNN
F 1 "SW_O1" H 7600 5694 50  0000 C CNN
F 2 "Button_Switch_THT:SW_PUSH_6mm_H4.3mm" H 7600 5700 50  0001 C CNN
F 3 "~" H 7600 5700 50  0001 C CNN
	1    7600 5500
	1    0    0    -1  
$EndComp
$Comp
L Device:Q_NMOS_GSD Q8
U 1 1 643AD36D
P 9850 4700
F 0 "Q8" H 10054 4746 50  0000 L CNN
F 1 "AP5N10S" H 10054 4655 50  0000 L CNN
F 2 "Package_TO_SOT_SMD:SOT-23" H 10050 4800 50  0001 C CNN
F 3 "~" H 9850 4700 50  0001 C CNN
F 4 "C2849571" H 9850 4700 50  0001 C CNN "LCSC"
	1    9850 4700
	1    0    0    -1  
$EndComp
$Comp
L Device:Q_NPN_BCE Q3
U 1 1 635E6A71
P 1800 2550
F 0 "Q3" H 1991 2596 50  0000 L CNN
F 1 "D882" H 1991 2505 50  0000 L CNN
F 2 "Package_TO_SOT_SMD:SOT-89-3" H 2000 2650 50  0001 C CNN
F 3 "~" H 1800 2550 50  0001 C CNN
	1    1800 2550
	1    0    0    -1  
$EndComp
Wire Wire Line
	1900 1800 1900 1850
Wire Wire Line
	2350 2100 2350 2050
Wire Wire Line
	2050 1800 2350 1800
Wire Wire Line
	2550 2150 2550 2100
Wire Wire Line
	2550 2100 2350 2100
$Comp
L biere_lib:JQC-3FB-S U4
U 1 1 63540991
P 2950 3450
F 0 "U4" H 3000 3465 50  0000 C CNN
F 1 "JQC-3FB-S" H 3000 3374 50  0000 C CNN
F 2 "bier_lib:JQC-3FB-S" H 2950 3450 50  0001 C CNN
F 3 "" H 2950 3450 50  0001 C CNN
F 4 "C2856210" H 2950 3450 50  0001 C CNN "LCSC"
	1    2950 3450
	1    0    0    -1  
$EndComp
$Comp
L Device:R_Small R26
U 1 1 63540998
P 2250 3550
F 0 "R26" H 2309 3596 50  0000 L CNN
F 1 "39 3W" H 2309 3505 50  0000 L CNN
F 2 "bier_lib:Resistor_2030" H 2250 3550 50  0001 C CNN
F 3 "~" H 2250 3550 50  0001 C CNN
F 4 "C175617" H 2250 3550 50  0001 C CNN "LCSC"
	1    2250 3550
	1    0    0    -1  
$EndComp
Wire Wire Line
	1800 3850 1800 3900
$Comp
L power:+12V #PWR0132
U 1 1 6354099F
P 1950 3400
F 0 "#PWR0132" H 1950 3250 50  0001 C CNN
F 1 "+12V" H 1965 3573 50  0000 C CNN
F 2 "" H 1950 3400 50  0001 C CNN
F 3 "" H 1950 3400 50  0001 C CNN
	1    1950 3400
	1    0    0    -1  
$EndComp
Connection ~ 1800 3900
Wire Wire Line
	1800 3900 1800 3950
$Comp
L Device:R_Small R18
U 1 1 635409A7
P 1300 4150
F 0 "R18" V 1104 4150 50  0000 C CNN
F 1 "330" V 1195 4150 50  0000 C CNN
F 2 "Resistor_SMD:R_0603_1608Metric" H 1300 4150 50  0001 C CNN
F 3 "~" H 1300 4150 50  0001 C CNN
	1    1300 4150
	0    1    1    0   
$EndComp
Wire Wire Line
	1400 4150 1500 4150
Wire Wire Line
	1200 4150 1150 4150
$Comp
L power:GND #PWR0133
U 1 1 635409AF
P 1800 4400
F 0 "#PWR0133" H 1800 4150 50  0001 C CNN
F 1 "GND" H 1805 4227 50  0000 C CNN
F 2 "" H 1800 4400 50  0001 C CNN
F 3 "" H 1800 4400 50  0001 C CNN
	1    1800 4400
	1    0    0    -1  
$EndComp
Wire Wire Line
	1800 4350 1800 4400
$Comp
L Device:R_Small R?
U 1 1 635409B8
P 1800 3550
AR Path="/635409B8" Ref="R?"  Part="1" 
AR Path="/634DC0EA/635409B8" Ref="R22"  Part="1" 
F 0 "R22" H 1859 3596 50  0000 L CNN
F 1 "1k8" H 1859 3505 50  0000 L CNN
F 2 "Resistor_SMD:R_0603_1608Metric" H 1800 3550 50  0001 C CNN
F 3 "~" H 1800 3550 50  0001 C CNN
	1    1800 3550
	-1   0    0    1   
$EndComp
Wire Wire Line
	2250 3400 2250 3450
Connection ~ 1950 3400
Wire Wire Line
	1950 3400 1800 3400
Text Label 3950 3750 2    50   ~ 0
PHASE
Wire Wire Line
	3950 3750 3550 3750
$Comp
L Device:Q_NPN_BCE Q1
U 1 1 635409CA
P 1700 4150
F 0 "Q1" H 1891 4196 50  0000 L CNN
F 1 "D882" H 1891 4105 50  0000 L CNN
F 2 "Package_TO_SOT_SMD:SOT-89-3" H 1900 4250 50  0001 C CNN
F 3 "~" H 1700 4150 50  0001 C CNN
	1    1700 4150
	1    0    0    -1  
$EndComp
Wire Wire Line
	1800 3400 1800 3450
Wire Wire Line
	1800 3900 2250 3900
$Comp
L Device:D_Small D2
U 1 1 635409D2
P 2250 3800
F 0 "D2" V 2204 3870 50  0000 L CNN
F 1 "1N4001" V 2295 3870 50  0000 L CNN
F 2 "Diode_SMD:D_SMA" V 2250 3800 50  0001 C CNN
F 3 "~" V 2250 3800 50  0001 C CNN
F 4 "C2909965" V 2250 3800 50  0001 C CNN "LCSC"
	1    2250 3800
	0    1    1    0   
$EndComp
Connection ~ 2250 3900
Wire Wire Line
	2250 3700 2250 3650
Wire Wire Line
	1950 3400 2250 3400
Wire Wire Line
	2450 3750 2450 3700
Wire Wire Line
	2450 3700 2250 3700
Connection ~ 2250 3700
Wire Wire Line
	2250 3900 2450 3900
$Comp
L biere_lib:JQC-3FB-S U5
U 1 1 635D3383
P 2950 5000
F 0 "U5" H 3000 5015 50  0000 C CNN
F 1 "JQC-3FB-S" H 3000 4924 50  0000 C CNN
F 2 "bier_lib:JQC-3FB-S" H 2950 5000 50  0001 C CNN
F 3 "" H 2950 5000 50  0001 C CNN
F 4 "C2856210" H 2950 5000 50  0001 C CNN "LCSC"
	1    2950 5000
	1    0    0    -1  
$EndComp
$Comp
L Device:R_Small R27
U 1 1 635D3389
P 2250 5100
F 0 "R27" H 2309 5146 50  0000 L CNN
F 1 "39 3W" H 2309 5055 50  0000 L CNN
F 2 "bier_lib:Resistor_2030" H 2250 5100 50  0001 C CNN
F 3 "~" H 2250 5100 50  0001 C CNN
F 4 "C175617" H 2250 5100 50  0001 C CNN "LCSC"
	1    2250 5100
	1    0    0    -1  
$EndComp
Wire Wire Line
	1800 5400 1800 5450
$Comp
L power:+12V #PWR0134
U 1 1 635D3390
P 1950 4950
F 0 "#PWR0134" H 1950 4800 50  0001 C CNN
F 1 "+12V" H 1965 5123 50  0000 C CNN
F 2 "" H 1950 4950 50  0001 C CNN
F 3 "" H 1950 4950 50  0001 C CNN
	1    1950 4950
	1    0    0    -1  
$EndComp
Connection ~ 1800 5450
Wire Wire Line
	1800 5450 1800 5500
$Comp
L Device:R_Small R19
U 1 1 635D3398
P 1300 5700
F 0 "R19" V 1104 5700 50  0000 C CNN
F 1 "330" V 1195 5700 50  0000 C CNN
F 2 "Resistor_SMD:R_0603_1608Metric" H 1300 5700 50  0001 C CNN
F 3 "~" H 1300 5700 50  0001 C CNN
	1    1300 5700
	0    1    1    0   
$EndComp
Wire Wire Line
	1400 5700 1500 5700
Wire Wire Line
	1200 5700 1150 5700
$Comp
L power:GND #PWR0135
U 1 1 635D33A0
P 1800 5950
F 0 "#PWR0135" H 1800 5700 50  0001 C CNN
F 1 "GND" H 1805 5777 50  0000 C CNN
F 2 "" H 1800 5950 50  0001 C CNN
F 3 "" H 1800 5950 50  0001 C CNN
	1    1800 5950
	1    0    0    -1  
$EndComp
Wire Wire Line
	1800 5900 1800 5950
$Comp
L Device:R_Small R?
U 1 1 635D33A7
P 1800 5100
AR Path="/635D33A7" Ref="R?"  Part="1" 
AR Path="/634DC0EA/635D33A7" Ref="R23"  Part="1" 
F 0 "R23" H 1859 5146 50  0000 L CNN
F 1 "1k8" H 1859 5055 50  0000 L CNN
F 2 "Resistor_SMD:R_0603_1608Metric" H 1800 5100 50  0001 C CNN
F 3 "~" H 1800 5100 50  0001 C CNN
	1    1800 5100
	-1   0    0    1   
$EndComp
Wire Wire Line
	2250 4950 2250 5000
Connection ~ 1950 4950
Wire Wire Line
	1950 4950 1800 4950
Text Label 3950 5300 2    50   ~ 0
PHASE
Wire Wire Line
	3950 5300 3550 5300
$Comp
L Device:Q_NPN_BCE Q2
U 1 1 635D33B2
P 1700 5700
F 0 "Q2" H 1891 5746 50  0000 L CNN
F 1 "D882" H 1891 5655 50  0000 L CNN
F 2 "Package_TO_SOT_SMD:SOT-89-3" H 1900 5800 50  0001 C CNN
F 3 "~" H 1700 5700 50  0001 C CNN
	1    1700 5700
	1    0    0    -1  
$EndComp
Wire Wire Line
	1800 4950 1800 5000
Wire Wire Line
	2250 5250 2250 5200
Wire Wire Line
	1950 4950 2250 4950
Wire Wire Line
	2450 5300 2450 5250
Wire Wire Line
	2450 5250 2250 5250
$Comp
L Device:D_Small D17
U 1 1 63616143
P 2350 2200
F 0 "D17" V 2304 2270 50  0000 L CNN
F 1 "1N4001" V 2395 2270 50  0000 L CNN
F 2 "Diode_SMD:D_SMA" V 2350 2200 50  0001 C CNN
F 3 "~" V 2350 2200 50  0001 C CNN
F 4 "C2909965" V 2350 2200 50  0001 C CNN "LCSC"
	1    2350 2200
	0    1    1    0   
$EndComp
$Comp
L Device:D_Small D16
U 1 1 63622494
P 2250 5350
F 0 "D16" V 2204 5420 50  0000 L CNN
F 1 "1N4001" V 2295 5420 50  0000 L CNN
F 2 "Diode_SMD:D_SMA" V 2250 5350 50  0001 C CNN
F 3 "~" V 2250 5350 50  0001 C CNN
F 4 "C2909965" V 2250 5350 50  0001 C CNN "LCSC"
	1    2250 5350
	0    1    1    0   
$EndComp
$Comp
L biere_lib:JQC-3FB-S U6
U 1 1 636568F2
P 2950 6500
F 0 "U6" H 3000 6515 50  0000 C CNN
F 1 "JQC-3FB-S" H 3000 6424 50  0000 C CNN
F 2 "bier_lib:JQC-3FB-S" H 2950 6500 50  0001 C CNN
F 3 "" H 2950 6500 50  0001 C CNN
F 4 "C2856210" H 2950 6500 50  0001 C CNN "LCSC"
	1    2950 6500
	1    0    0    -1  
$EndComp
$Comp
L Device:R_Small R28
U 1 1 636568F8
P 2250 6600
F 0 "R28" H 2309 6646 50  0000 L CNN
F 1 "39 3W" H 2309 6555 50  0000 L CNN
F 2 "bier_lib:Resistor_2030" H 2250 6600 50  0001 C CNN
F 3 "~" H 2250 6600 50  0001 C CNN
F 4 "C175617" H 2250 6600 50  0001 C CNN "LCSC"
	1    2250 6600
	1    0    0    -1  
$EndComp
Wire Wire Line
	1800 6900 1800 6950
$Comp
L power:+12V #PWR04
U 1 1 636568FF
P 1950 6450
F 0 "#PWR04" H 1950 6300 50  0001 C CNN
F 1 "+12V" H 1965 6623 50  0000 C CNN
F 2 "" H 1950 6450 50  0001 C CNN
F 3 "" H 1950 6450 50  0001 C CNN
	1    1950 6450
	1    0    0    -1  
$EndComp
Connection ~ 1800 6950
Wire Wire Line
	1800 6950 1800 7000
$Comp
L Device:R_Small R20
U 1 1 63656907
P 1300 7200
F 0 "R20" V 1104 7200 50  0000 C CNN
F 1 "330" V 1195 7200 50  0000 C CNN
F 2 "Resistor_SMD:R_0603_1608Metric" H 1300 7200 50  0001 C CNN
F 3 "~" H 1300 7200 50  0001 C CNN
	1    1300 7200
	0    1    1    0   
$EndComp
Wire Wire Line
	1400 7200 1500 7200
Wire Wire Line
	1200 7200 1150 7200
$Comp
L power:GND #PWR03
U 1 1 6365690F
P 1800 7450
F 0 "#PWR03" H 1800 7200 50  0001 C CNN
F 1 "GND" H 1805 7277 50  0000 C CNN
F 2 "" H 1800 7450 50  0001 C CNN
F 3 "" H 1800 7450 50  0001 C CNN
	1    1800 7450
	1    0    0    -1  
$EndComp
Wire Wire Line
	1800 7400 1800 7450
$Comp
L Device:R_Small R?
U 1 1 63656916
P 1800 6600
AR Path="/63656916" Ref="R?"  Part="1" 
AR Path="/634DC0EA/63656916" Ref="R24"  Part="1" 
F 0 "R24" H 1859 6646 50  0000 L CNN
F 1 "1k8" H 1859 6555 50  0000 L CNN
F 2 "Resistor_SMD:R_0603_1608Metric" H 1800 6600 50  0001 C CNN
F 3 "~" H 1800 6600 50  0001 C CNN
	1    1800 6600
	-1   0    0    1   
$EndComp
Wire Wire Line
	2250 6450 2250 6500
Connection ~ 1950 6450
Wire Wire Line
	1950 6450 1800 6450
Text Label 3950 6800 2    50   ~ 0
PHASE
Wire Wire Line
	3950 6800 3550 6800
$Comp
L Device:Q_NPN_BCE Q4
U 1 1 63656921
P 1700 7200
F 0 "Q4" H 1891 7246 50  0000 L CNN
F 1 "D882" H 1891 7155 50  0000 L CNN
F 2 "Package_TO_SOT_SMD:SOT-89-3" H 1900 7300 50  0001 C CNN
F 3 "~" H 1700 7200 50  0001 C CNN
	1    1700 7200
	1    0    0    -1  
$EndComp
Wire Wire Line
	1800 6450 1800 6500
Wire Wire Line
	2250 6750 2250 6700
Wire Wire Line
	1950 6450 2250 6450
Wire Wire Line
	2450 6800 2450 6750
Wire Wire Line
	2450 6750 2250 6750
$Comp
L Device:D_Small D18
U 1 1 6365692E
P 2250 6850
F 0 "D18" V 2204 6920 50  0000 L CNN
F 1 "1N4001" V 2295 6920 50  0000 L CNN
F 2 "Diode_SMD:D_SMA" V 2250 6850 50  0001 C CNN
F 3 "~" V 2250 6850 50  0001 C CNN
F 4 "C2909965" V 2250 6850 50  0001 C CNN "LCSC"
	1    2250 6850
	0    1    1    0   
$EndComp
$Comp
L biere_lib:JQC-3FB-S U7
U 1 1 636C38A4
P 6350 850
F 0 "U7" H 6400 865 50  0000 C CNN
F 1 "JQC-3FB-S" H 6400 774 50  0000 C CNN
F 2 "bier_lib:JQC-3FB-S" H 6350 850 50  0001 C CNN
F 3 "" H 6350 850 50  0001 C CNN
F 4 "C2856210" H 6350 850 50  0001 C CNN "LCSC"
	1    6350 850 
	1    0    0    -1  
$EndComp
$Comp
L Device:R_Small R33
U 1 1 636C38AA
P 5650 950
F 0 "R33" H 5709 996 50  0000 L CNN
F 1 "39 3W" H 5709 905 50  0000 L CNN
F 2 "bier_lib:Resistor_2030" H 5650 950 50  0001 C CNN
F 3 "~" H 5650 950 50  0001 C CNN
F 4 "C175617" H 5650 950 50  0001 C CNN "LCSC"
	1    5650 950 
	1    0    0    -1  
$EndComp
$Comp
L power:+12V #PWR047
U 1 1 636C38B1
P 5350 800
F 0 "#PWR047" H 5350 650 50  0001 C CNN
F 1 "+12V" H 5365 973 50  0000 C CNN
F 2 "" H 5350 800 50  0001 C CNN
F 3 "" H 5350 800 50  0001 C CNN
	1    5350 800 
	1    0    0    -1  
$EndComp
$Comp
L Device:R_Small R29
U 1 1 636C38B9
P 4700 1550
F 0 "R29" V 4504 1550 50  0000 C CNN
F 1 "330" V 4595 1550 50  0000 C CNN
F 2 "Resistor_SMD:R_0603_1608Metric" H 4700 1550 50  0001 C CNN
F 3 "~" H 4700 1550 50  0001 C CNN
	1    4700 1550
	0    1    1    0   
$EndComp
Wire Wire Line
	4800 1550 4900 1550
Wire Wire Line
	4600 1550 4550 1550
$Comp
L power:GND #PWR045
U 1 1 636C38C1
P 5200 1800
F 0 "#PWR045" H 5200 1550 50  0001 C CNN
F 1 "GND" H 5205 1627 50  0000 C CNN
F 2 "" H 5200 1800 50  0001 C CNN
F 3 "" H 5200 1800 50  0001 C CNN
	1    5200 1800
	1    0    0    -1  
$EndComp
Wire Wire Line
	5200 1750 5200 1800
$Comp
L Device:R_Small R?
U 1 1 636C38C8
P 5200 950
AR Path="/636C38C8" Ref="R?"  Part="1" 
AR Path="/634DC0EA/636C38C8" Ref="R31"  Part="1" 
F 0 "R31" H 5259 996 50  0000 L CNN
F 1 "1k8" H 5259 905 50  0000 L CNN
F 2 "Resistor_SMD:R_0603_1608Metric" H 5200 950 50  0001 C CNN
F 3 "~" H 5200 950 50  0001 C CNN
	1    5200 950 
	-1   0    0    1   
$EndComp
Wire Wire Line
	5650 800  5650 850 
Connection ~ 5350 800 
Wire Wire Line
	5350 800  5200 800 
$Comp
L Device:Q_NPN_BCE Q5
U 1 1 636C38D3
P 5100 1550
F 0 "Q5" H 5291 1596 50  0000 L CNN
F 1 "D882" H 5291 1505 50  0000 L CNN
F 2 "Package_TO_SOT_SMD:SOT-89-3" H 5300 1650 50  0001 C CNN
F 3 "~" H 5100 1550 50  0001 C CNN
	1    5100 1550
	1    0    0    -1  
$EndComp
Wire Wire Line
	5200 800  5200 850 
Wire Wire Line
	5650 1100 5650 1050
Wire Wire Line
	5350 800  5650 800 
Wire Wire Line
	5850 1150 5850 1100
Wire Wire Line
	5850 1100 5650 1100
$Comp
L Device:D_Small D19
U 1 1 636C38E0
P 5650 1200
F 0 "D19" V 5604 1270 50  0000 L CNN
F 1 "1N4001" V 5695 1270 50  0000 L CNN
F 2 "Diode_SMD:D_SMA" V 5650 1200 50  0001 C CNN
F 3 "~" V 5650 1200 50  0001 C CNN
F 4 "C2909965" V 5650 1200 50  0001 C CNN "LCSC"
	1    5650 1200
	0    1    1    0   
$EndComp
Text HLabel 10000 3850 2    50   Output ~ 0
OUT2_12
Wire Wire Line
	9950 3850 10000 3850
Text HLabel 10000 4000 2    50   Output ~ 0
OUT2_0
Wire Wire Line
	9950 4000 10000 4000
Wire Wire Line
	9950 4000 9950 4100
Wire Wire Line
	9950 4100 10700 4100
Wire Wire Line
	10700 3500 10700 3550
Wire Wire Line
	9950 3500 10700 3500
Text HLabel 9200 2300 0    50   Input ~ 0
IN_OUT1
$Comp
L Device:R_Small R35
U 1 1 637D41F6
P 9450 2300
F 0 "R35" V 9254 2300 50  0000 C CNN
F 1 "22" V 9345 2300 50  0000 C CNN
F 2 "Resistor_SMD:R_0603_1608Metric" H 9450 2300 50  0001 C CNN
F 3 "~" H 9450 2300 50  0001 C CNN
	1    9450 2300
	0    1    1    0   
$EndComp
Wire Wire Line
	9550 2300 9650 2300
$Comp
L power:GND #PWR027
U 1 1 637D41FD
P 9950 2550
F 0 "#PWR027" H 9950 2300 50  0001 C CNN
F 1 "GND" H 9955 2377 50  0000 C CNN
F 2 "" H 9950 2550 50  0001 C CNN
F 3 "" H 9950 2550 50  0001 C CNN
	1    9950 2550
	1    0    0    -1  
$EndComp
Wire Wire Line
	9950 2500 9950 2550
$Comp
L power:+12V #PWR026
U 1 1 637D4232
P 9950 1100
F 0 "#PWR026" H 9950 950 50  0001 C CNN
F 1 "+12V" H 9965 1273 50  0000 C CNN
F 2 "" H 9950 1100 50  0001 C CNN
F 3 "" H 9950 1100 50  0001 C CNN
	1    9950 1100
	1    0    0    -1  
$EndComp
Wire Wire Line
	9950 1100 9950 1150
Connection ~ 9950 1700
$Comp
L Device:R_Small R36
U 1 1 637D423B
P 9950 1250
F 0 "R36" H 10009 1296 50  0000 L CNN
F 1 "1 1W" H 10009 1205 50  0000 L CNN
F 2 "Resistor_SMD:R_1218_3246Metric" H 9950 1250 50  0001 C CNN
F 3 "~" H 9950 1250 50  0001 C CNN
F 4 "C175540" H 9950 1250 50  0001 C CNN "LCSC"
	1    9950 1250
	1    0    0    -1  
$EndComp
Wire Wire Line
	9950 1700 9950 2100
Wire Wire Line
	9200 2300 9350 2300
$Comp
L Device:R_Small R?
U 1 1 637D425D
P 10700 1250
AR Path="/637D425D" Ref="R?"  Part="1" 
AR Path="/634DC0EA/637D425D" Ref="R37"  Part="1" 
F 0 "R37" H 10759 1296 50  0000 L CNN
F 1 "1k8" H 10759 1205 50  0000 L CNN
F 2 "Resistor_SMD:R_0603_1608Metric" H 10700 1250 50  0001 C CNN
F 3 "~" H 10700 1250 50  0001 C CNN
	1    10700 1250
	-1   0    0    1   
$EndComp
Wire Wire Line
	10700 1550 10700 1700
Connection ~ 9950 1100
$Comp
L Device:Q_NMOS_GSD Q7
U 1 1 637D4274
P 9850 2300
F 0 "Q7" H 10054 2346 50  0000 L CNN
F 1 "AP5N10S" H 10054 2255 50  0000 L CNN
F 2 "Package_TO_SOT_SMD:SOT-23" H 10050 2400 50  0001 C CNN
F 3 "~" H 9850 2300 50  0001 C CNN
F 4 "C2849571" H 9850 2300 50  0001 C CNN "LCSC"
	1    9850 2300
	1    0    0    -1  
$EndComp
Text HLabel 10000 1450 2    50   Output ~ 0
OUT1_12
Wire Wire Line
	9950 1450 10000 1450
Text HLabel 10000 1600 2    50   Output ~ 0
OUT1_0
Wire Wire Line
	9950 1600 10000 1600
Wire Wire Line
	9950 1600 9950 1700
Wire Wire Line
	9950 1700 10700 1700
Wire Wire Line
	10700 1100 10700 1150
Wire Wire Line
	9950 1100 10700 1100
Wire Wire Line
	9950 1350 9950 1450
Wire Wire Line
	9950 3750 9950 3850
Wire Wire Line
	5650 1300 5850 1300
Wire Wire Line
	5200 1250 5200 1300
Wire Wire Line
	5650 1300 5200 1300
Connection ~ 5650 1300
Connection ~ 5200 1300
Wire Wire Line
	5200 1300 5200 1350
Wire Wire Line
	1900 2300 2350 2300
Connection ~ 2350 2300
Wire Wire Line
	2350 2300 2550 2300
Wire Wire Line
	1800 5450 2250 5450
Connection ~ 2250 5450
Wire Wire Line
	2250 5450 2450 5450
Wire Wire Line
	1800 6950 2250 6950
Connection ~ 2250 6950
Wire Wire Line
	2250 6950 2450 6950
Text HLabel 6950 1150 2    50   Input ~ 0
PUMP3_IN
$EndSCHEMATC
