EESchema Schematic File Version 4
EELAYER 30 0
EELAYER END
$Descr A4 11693 8268
encoding utf-8
Sheet 3 5
Title ""
Date ""
Rev ""
Comp ""
Comment1 ""
Comment2 ""
Comment3 ""
Comment4 ""
$EndDescr
$Comp
L biere_lib:HLK-30M12 U11
U 1 1 63507A8F
P 6000 1750
F 0 "U11" H 6025 1815 50  0000 C CNN
F 1 "HLK-30M12" H 6025 1724 50  0000 C CNN
F 2 "bier_lib:HLK-30M12" H 6000 1750 50  0001 C CNN
F 3 "" H 6000 1750 50  0001 C CNN
F 4 "C2761166" H 6000 1750 50  0001 C CNN "LCSC"
	1    6000 1750
	1    0    0    -1  
$EndComp
Text HLabel 2250 1700 0    50   Input ~ 0
PHASE
Text HLabel 2250 2400 0    50   Input ~ 0
NEUTRE
$Comp
L Device:Fuse F1
U 1 1 63508BAF
P 2550 1700
F 0 "F1" V 2353 1700 50  0000 C CNN
F 1 "Fuse 230VAC 2A" V 2444 1700 50  0000 C CNN
F 2 "Fuse:Fuseholder_Cylinder-5x20mm_Stelvio-Kontek_PTF78_Horizontal_Open" V 2480 1700 50  0001 C CNN
F 3 "~" H 2550 1700 50  0001 C CNN
F 4 "C58066" H 2550 1700 50  0001 C CNN "LCSC"
	1    2550 1700
	0    1    1    0   
$EndComp
Wire Wire Line
	2250 1700 2400 1700
$Comp
L power:+12V #PWR071
U 1 1 63509976
P 7650 1950
F 0 "#PWR071" H 7650 1800 50  0001 C CNN
F 1 "+12V" H 7665 2123 50  0000 C CNN
F 2 "" H 7650 1950 50  0001 C CNN
F 3 "" H 7650 1950 50  0001 C CNN
	1    7650 1950
	1    0    0    -1  
$EndComp
$Comp
L power:GND #PWR070
U 1 1 6350AA68
P 6750 2150
F 0 "#PWR070" H 6750 1900 50  0001 C CNN
F 1 "GND" H 6755 1977 50  0000 C CNN
F 2 "" H 6750 2150 50  0001 C CNN
F 3 "" H 6750 2150 50  0001 C CNN
	1    6750 2150
	1    0    0    -1  
$EndComp
Wire Wire Line
	6750 2150 6450 2150
Wire Wire Line
	6450 2150 6450 2100
Wire Wire Line
	6450 1950 6750 1950
$Comp
L Device:CP_Small C17
U 1 1 6350B252
P 6750 2050
F 0 "C17" H 6838 2096 50  0000 L CNN
F 1 "10u 25v" H 6838 2005 50  0000 L CNN
F 2 "Capacitor_SMD:C_0603_1608Metric" H 6750 2050 50  0001 C CNN
F 3 "~" H 6750 2050 50  0001 C CNN
F 4 "C15850" H 6750 2050 50  0001 C CNN "LCSC"
	1    6750 2050
	1    0    0    -1  
$EndComp
Connection ~ 6750 2150
$Comp
L Device:C_Small C16
U 1 1 6350BA50
P 2850 2050
F 0 "C16" H 2942 2096 50  0000 L CNN
F 1 "0.1u 275VAC" H 2942 2005 50  0000 L CNN
F 2 "Capacitor_THT:C_Disc_D8.0mm_W5.0mm_P10.00mm" H 2850 2050 50  0001 C CNN
F 3 "~" H 2850 2050 50  0001 C CNN
F 4 "C401224" H 2850 2050 50  0001 C CNN "LCSC"
	1    2850 2050
	1    0    0    -1  
$EndComp
Wire Wire Line
	2700 1700 2850 1700
Connection ~ 2850 1700
$Comp
L Regulator_Linear:LM1085-3.3 U12
U 1 1 635119BD
P 8150 1950
F 0 "U12" H 8150 2192 50  0000 C CNN
F 1 "LM1085-3.3" H 8150 2101 50  0000 C CNN
F 2 "Package_TO_SOT_SMD:TO-263-3_TabPin2" H 8150 2200 50  0001 C CIN
F 3 "http://www.ti.com/lit/ds/symlink/lm1085.pdf" H 8150 1950 50  0001 C CNN
F 4 "C444380" H 8150 1950 50  0001 C CNN "LCSC"
	1    8150 1950
	1    0    0    -1  
$EndComp
$Comp
L power:GND #PWR072
U 1 1 63513B3C
P 8150 2250
F 0 "#PWR072" H 8150 2000 50  0001 C CNN
F 1 "GND" H 8155 2077 50  0000 C CNN
F 2 "" H 8150 2250 50  0001 C CNN
F 3 "" H 8150 2250 50  0001 C CNN
	1    8150 2250
	1    0    0    -1  
$EndComp
$Comp
L power:+3.3V #PWR073
U 1 1 63514177
P 8650 1950
F 0 "#PWR073" H 8650 1800 50  0001 C CNN
F 1 "+3.3V" H 8665 2123 50  0000 C CNN
F 2 "" H 8650 1950 50  0001 C CNN
F 3 "" H 8650 1950 50  0001 C CNN
	1    8650 1950
	1    0    0    -1  
$EndComp
$Comp
L Device:C_Small C18
U 1 1 63514AD6
P 8650 2100
F 0 "C18" H 8742 2146 50  0000 L CNN
F 1 "100u" H 8742 2055 50  0000 L CNN
F 2 "Capacitor_SMD:CP_Elec_5x5.4" H 8650 2100 50  0001 C CNN
F 3 "~" H 8650 2100 50  0001 C CNN
F 4 "C72472" H 8650 2100 50  0001 C CNN "LCSC"
	1    8650 2100
	1    0    0    -1  
$EndComp
Wire Wire Line
	8650 1950 8450 1950
Wire Wire Line
	8150 2250 8650 2250
Connection ~ 8150 2250
Wire Wire Line
	8650 2200 8650 2250
Wire Wire Line
	8650 2000 8650 1950
Connection ~ 8650 1950
$Comp
L Device:Fuse F2
U 1 1 639989C7
P 7150 1950
F 0 "F2" V 6953 1950 50  0000 C CNN
F 1 "Fuse 12V 3A" V 7044 1950 50  0000 C CNN
F 2 "Fuse:Fuseholder_Cylinder-5x20mm_Stelvio-Kontek_PTF78_Horizontal_Open" V 7080 1950 50  0001 C CNN
F 3 "~" H 7150 1950 50  0001 C CNN
F 4 "C58066" V 7150 1950 50  0001 C CNN "LCSC"
	1    7150 1950
	0    1    1    0   
$EndComp
Wire Wire Line
	7650 1950 7850 1950
Wire Wire Line
	7000 1950 6750 1950
Connection ~ 6750 1950
Wire Wire Line
	7650 1950 7300 1950
Connection ~ 7650 1950
$Comp
L biere-rescue:MOV-10D561K-SamacSys_Parts RV1
U 1 1 64310195
P 3600 1700
AR Path="/64310195" Ref="RV1"  Part="1" 
AR Path="/63506B18/64310195" Ref="RV1"  Part="1" 
F 0 "RV1" V 3904 1828 50  0000 L CNN
F 1 "10D561K" V 3995 1828 50  0000 L CNN
F 2 "Varistor:RV_Disc_D12mm_W7.1mm_P7.5mm" H 4150 1750 50  0001 L CNN
F 3 "https://www.bourns.com/docs/Product-Datasheets/MOV10D.pdf" H 4150 1650 50  0001 L CNN
F 4 "Varistors 180pF 560volts 10%" H 4150 1550 50  0001 L CNN "Description"
F 5 "15.5" H 4150 1450 50  0001 L CNN "Height"
F 6 "Bourns" H 4150 1350 50  0001 L CNN "Manufacturer_Name"
F 7 "MOV-10D561K" H 4150 1250 50  0001 L CNN "Manufacturer_Part_Number"
F 8 "652-MOV-10D561K" H 4150 1150 50  0001 L CNN "Mouser Part Number"
F 9 "https://www.mouser.co.uk/ProductDetail/Bourns/MOV-10D561K?qs=lgttKnAd%252B2ArrqGQgWwr6w%3D%3D" H 4150 1050 50  0001 L CNN "Mouser Price/Stock"
F 10 "MOV-10D561K" H 4150 950 50  0001 L CNN "Arrow Part Number"
F 11 "https://www.arrow.com/en/products/mov-10d561k/bourns" H 4150 850 50  0001 L CNN "Arrow Price/Stock"
F 12 "" H 4150 750 50  0001 L CNN "Mouser Testing Part Number"
F 13 "" H 4150 650 50  0001 L CNN "Mouser Testing Price/Stock"
F 14 "C233178" V 3600 1700 50  0001 C CNN "LCSC"
	1    3600 1700
	0    1    1    0   
$EndComp
Wire Wire Line
	2850 1700 3600 1700
Connection ~ 3600 1700
Wire Wire Line
	2250 2400 2850 2400
Wire Wire Line
	2850 1700 2850 1950
Wire Wire Line
	2850 2150 2850 2400
Connection ~ 2850 2400
Wire Wire Line
	2850 2400 3600 2400
Text Notes 6950 1650 0    50   ~ 0
C171793\nGlassTube 5x20\n\nC58066\nHolder
$Comp
L Device:EMI_Filter_LL_1423 FL1
U 1 1 643FBFA3
P 4450 2050
F 0 "FL1" H 4450 2331 50  0000 C CNN
F 1 "PDUUAT105-203MLN" H 4450 2240 50  0000 C CNN
F 2 "bier_lib:PDUUAT105-203" H 4450 1800 50  0001 C CNN
F 3 "~" V 4450 2090 50  0001 C CNN
F 4 "C2932161" H 4450 2050 50  0001 C CNN "LCSC"
	1    4450 2050
	1    0    0    -1  
$EndComp
Wire Wire Line
	4000 1700 4000 1950
Wire Wire Line
	4000 1950 4250 1950
Wire Wire Line
	3600 1700 4000 1700
Wire Wire Line
	3600 2400 4000 2400
Wire Wire Line
	4000 2400 4000 2150
Wire Wire Line
	4000 2150 4250 2150
Connection ~ 3600 2400
Wire Wire Line
	4650 1950 5600 1950
Wire Wire Line
	5600 2100 5600 2150
Wire Wire Line
	4650 2150 5600 2150
$EndSCHEMATC
