(module JQC-3FB-S (layer F.Cu) (tedit 634C46D1)
  (fp_text reference REF** (at 9.9822 1.1176) (layer F.SilkS)
    (effects (font (size 1 1) (thickness 0.15)))
  )
  (fp_text value JQC-3FB-S (at 9.9314 2.8702) (layer F.Fab)
    (effects (font (size 1 1) (thickness 0.15)))
  )
  (fp_circle (center 10.1346 7.6708) (end 10.2362 7.62) (layer B.Paste) (width 0.12))
  (fp_circle (center 7.6708 7.62) (end 7.7724 7.5692) (layer B.Paste) (width 0.12))
  (fp_line (start 15.6972 5.1) (end 15.6972 3.2004) (layer B.Paste) (width 0.12))
  (fp_line (start 10.1346 5.1054) (end 15.675 5.1054) (layer B.Paste) (width 0.12))
  (fp_line (start 10.1346 7.6708) (end 10.1346 5.1054) (layer B.Paste) (width 0.12))
  (fp_line (start 7.6708 7.62) (end 9.8552 8.5852) (layer B.Paste) (width 0.12))
  (fp_line (start 3.1242 7.62) (end 7.6708 7.62) (layer B.Paste) (width 0.12))
  (fp_line (start 0 15.3) (end 19 15.3) (layer B.Paste) (width 0.12))
  (fp_line (start 19 0) (end 19 15.3) (layer B.Paste) (width 0.12))
  (fp_line (start 0 0) (end 0 15.3) (layer B.Paste) (width 0.12))
  (fp_line (start 0 0) (end 19 0) (layer B.Paste) (width 0.12))
  (pad 1 thru_hole circle (at 3.4 1.65) (size 3 3) (drill 1.3) (layers *.Cu *.Mask)
    (clearance 0.5))
  (pad 2 thru_hole circle (at 3.4 13.65) (size 3 3) (drill 1.3) (layers *.Cu *.Mask)
    (clearance 0.5))
  (pad 3 thru_hole circle (at 1.4 7.65) (size 3 3) (drill 1.3) (layers *.Cu *.Mask)
    (clearance 1))
  (pad 4 thru_hole circle (at 15.6 1.65) (size 3 3) (drill 1.3) (layers *.Cu *.Mask)
    (clearance 1))
)
